<?xml version="1.0" encoding="UTF-8" standalone="no"?>
<svg
   xmlns:dc="http://purl.org/dc/elements/1.1/"
   xmlns:cc="http://creativecommons.org/ns#"
   xmlns:rdf="http://www.w3.org/1999/02/22-rdf-syntax-ns#"
   xmlns:svg="http://www.w3.org/2000/svg"
   xmlns="http://www.w3.org/2000/svg"
   xmlns:xlink="http://www.w3.org/1999/xlink"
   xmlns:sodipodi="http://sodipodi.sourceforge.net/DTD/sodipodi-0.dtd"
   xmlns:inkscape="http://www.inkscape.org/namespaces/inkscape"
   inkscape:version="1.0.1 (3bc2e813f5, 2020-09-07)"
   sodipodi:docname="distribute-vertical-center-symbolic.svg"
   viewBox="0 0 16 16"
   height="16"
   width="16"
   id="svg1"
   version="1.1">
  <style
     id="s0">
   .success { fill: #009909; }
   .warning { fill: #FF1990; }
   .error   { fill: #00AAFF; }
  </style>
  <style
     id="s2"> 
     @import '../../highlights.css'; 
  </style>
  <metadata
     id="metadata1054">
    <rdf:RDF>
      <cc:Work
         rdf:about="">
        <dc:format>image/svg+xml</dc:format>
        <dc:type
           rdf:resource="http://purl.org/dc/dcmitype/StillImage" />
        <dc:title></dc:title>
      </cc:Work>
    </rdf:RDF>
  </metadata>
  <defs
     id="defs1052" />
  <sodipodi:namedview
     inkscape:snap-global="true"
     inkscape:document-rotation="0"
     inkscape:current-layer="distribute-vertical-center"
     inkscape:window-maximized="1"
     inkscape:window-y="-9"
     inkscape:window-x="-9"
     inkscape:window-height="1013"
     inkscape:window-width="1920"
     inkscape:cy="10.111577"
     inkscape:cx="13.281865"
     inkscape:zoom="43.102621"
     showgrid="true"
     id="namedview"
     guidetolerance="10"
     gridtolerance="10"
     objecttolerance="10">
    <inkscape:grid
       id="grid"
       type="xygrid"
       spacingx="0.66667"
       spacingy="0.66667" />
  </sodipodi:namedview>
  <g
     id="distribute-vertical-center"
     inkscape:label="00284"
     transform="matrix(0.666667,0,0,0.666667,-721.334,-497.57467)">
    <use
       height="1250"
       width="1250"
       transform="matrix(0,1,0.5416243,0,698.3349,-285.638)"
       id="use18859"
       y="0"
       x="0"
       xlink:href="#path5265" />
    <g
       id="g880"
       transform="rotate(-90,1094.0005,758.36168)">
      <rect
         id="rect932-8"
         width="9.9999952"
         height="4.9999981"
         x="757.36169"
         y="-1103.0005"
         class="error"
         style="opacity:0.8;fill:#00aaff;stroke-width:1.36083"
         transform="rotate(90)" />
      <path
         id="rect930-4"
         style="opacity:0.8;fill:#00aaff;stroke-width:1.37689"
         d="m 1092.0005,755.36173 v 13 h -7 v -13 l 2,1e-5 h 0.9394 2.0606 z"
         class="error"
         sodipodi:nodetypes="cccccccc" />
      <rect
         id="rect879"
         width="0.99999952"
         height="8.0000324"
         x="1100.0005"
         y="748.36169"
         class="base"
         style="fill:#4d4d4d;stroke-width:0.755926" />
      <rect
         id="rect881"
         width="0.99999952"
         height="6.0000577"
         x="1088.0005"
         y="748.36163"
         class="base"
         style="fill:#4d4d4d;stroke-width:0.654648" />
      <path
         id="rect873"
         style="opacity:0.8;fill:#4d4d4d;stroke-width:0.509625"
         d="m 1084.0006,750.36168 3.0001,-3e-5 v -1 l 0.9998,1.00003 v 0.99998 l -0.9998,1.00001 v -1.00001 h -3.0001 z"
         class="base"
         sodipodi:nodetypes="ccccccccc" />
      <path
         id="rect875"
         style="opacity:0.8;fill:#4d4d4d;stroke-width:0.507093"
         d="m 1101.0004,750.36168 1,-1.00003 v 1 l 3.0001,3e-5 v 0.99998 h -3.0001 v 1.00001 l -1,-1.00001 z"
         class="base"
         sodipodi:nodetypes="ccccccccc" />
    </g>
  </g>
</svg>
