<?xml version="1.0" encoding="UTF-8" standalone="no"?>
<svg
   xmlns:dc="http://purl.org/dc/elements/1.1/"
   xmlns:cc="http://creativecommons.org/ns#"
   xmlns:rdf="http://www.w3.org/1999/02/22-rdf-syntax-ns#"
   xmlns:svg="http://www.w3.org/2000/svg"
   xmlns="http://www.w3.org/2000/svg"
   xmlns:sodipodi="http://sodipodi.sourceforge.net/DTD/sodipodi-0.dtd"
   xmlns:inkscape="http://www.inkscape.org/namespaces/inkscape"
   version="1.1"
   id="svg1"
   width="16"
   height="16"
   viewBox="0 0 16 16"
   sodipodi:docname="draw-ellipse-arc-symbolic.svg"
   inkscape:version="1.0.1 (3bc2e813f5, 2020-09-07)">
  <metadata
     id="metadata9854">
    <rdf:RDF>
      <cc:Work
         rdf:about="">
        <dc:format>image/svg+xml</dc:format>
        <dc:type
           rdf:resource="http://purl.org/dc/dcmitype/StillImage" />
        <dc:title />
      </cc:Work>
    </rdf:RDF>
  </metadata>
  <defs
     id="defs9852">
    <inkscape:path-effect
       effect="join_type"
       id="path-effect846"
       is_visible="true"
       lpeversion="1"
       linecap_type="butt"
       line_width="1.34"
       linejoin_type="extrp_arc"
       miter_limit="100"
       attempt_force_join="true" />
    <inkscape:path-effect
       effect="offset"
       id="path-effect844"
       is_visible="false"
       lpeversion="1"
       linejoin_type="miter"
       unit="px"
       offset="-0.5"
       miter_limit="4"
       attempt_force_join="true"
       update_on_knot_move="true" />
    <inkscape:path-effect
       effect="join_type"
       id="path-effect842"
       is_visible="true"
       lpeversion="1"
       linecap_type="butt"
       line_width="1"
       linejoin_type="extrp_arc"
       miter_limit="100"
       attempt_force_join="true" />
    <inkscape:path-effect
       update_on_knot_move="true"
       attempt_force_join="true"
       miter_limit="4"
       offset="-0.08708211"
       unit="mm"
       linejoin_type="miter"
       lpeversion="1"
       is_visible="true"
       id="path-effect835"
       effect="offset" />
  </defs>
  <style
     id="s0">
.success { fill:#009909; }
.warning { fill:#FF1990; }
.error { fill:#00AAFF; }
</style>
  <style
     id="s2">
@import '../../highlights.css';
</style>
  <sodipodi:namedview
     objecttolerance="10"
     gridtolerance="10"
     guidetolerance="10"
     id="namedview"
     showgrid="true"
     inkscape:zoom="42.991071"
     inkscape:cx="18.192814"
     inkscape:cy="12.227456"
     inkscape:window-width="1920"
     inkscape:window-height="1013"
     inkscape:window-x="-9"
     inkscape:window-y="-9"
     inkscape:window-maximized="1"
     inkscape:current-layer="draw-ellipse-arc"
     inkscape:document-rotation="0">
    <inkscape:grid
       type="xygrid"
       id="grid"
       spacingx="0.66667"
       spacingy="0.66667" />
  </sodipodi:namedview>
  <g
     transform="translate(-409,-651.36218)"
     inkscape:label="00172"
     id="draw-ellipse-arc">
    <path
       style="fill:#000000;fill-rule:nonzero;stroke:none;stroke-width:0.999996;stroke-opacity:1;stop-color:#000000"
       id="path835"
       sodipodi:type="arc"
       sodipodi:cx="416.99997"
       sodipodi:cy="659.37933"
       sodipodi:rx="5.6669998"
       sodipodi:ry="5.6669998"
       inkscape:path-effect="#path-effect846"
       d="m 421.99697,659.37933 c 0,2.47984 -1.81912,4.58484 -4.27278,4.94424 -2.45365,0.35941 -4.80007,-1.13542 -5.51129,-3.51108 -0.71123,-2.37566 0.42775,-4.91395 2.67525,-5.96198 l -0.56631,-1.21445 c -2.85059,1.32925 -4.29472,4.54761 -3.39265,7.56075 0.90207,3.01313 3.87715,4.90846 6.98921,4.45261 3.11206,-0.45584 5.41857,-3.12482 5.41857,-6.27009 z"
       sodipodi:arc-type="arc"
       sodipodi:open="true"
       sodipodi:start="0"
       sodipodi:end="4.2760567" />
  </g>
</svg>
