<?xml version="1.0" encoding="UTF-8" standalone="no"?>
<svg
   xmlns:dc="http://purl.org/dc/elements/1.1/"
   xmlns:cc="http://creativecommons.org/ns#"
   xmlns:rdf="http://www.w3.org/1999/02/22-rdf-syntax-ns#"
   xmlns:svg="http://www.w3.org/2000/svg"
   xmlns="http://www.w3.org/2000/svg"
   xmlns:sodipodi="http://sodipodi.sourceforge.net/DTD/sodipodi-0.dtd"
   xmlns:inkscape="http://www.inkscape.org/namespaces/inkscape"
   inkscape:version="1.0.1 (3bc2e813f5, 2020-09-07)"
   sodipodi:docname="edit-clone-unlink-symbolic.svg"
   viewBox="0 0 16 16"
   height="16"
   width="16"
   id="svg1"
   version="1.1">
  <metadata
     id="metadata3820">
    <rdf:RDF>
      <cc:Work
         rdf:about="">
        <dc:format>image/svg+xml</dc:format>
        <dc:type
           rdf:resource="http://purl.org/dc/dcmitype/StillImage" />
        <dc:title />
      </cc:Work>
    </rdf:RDF>
  </metadata>
  <defs
     id="defs3818">
    <inkscape:path-effect
       effect="fillet_chamfer"
       id="path-effect876"
       is_visible="true"
       lpeversion="1"
       satellites_param="F,0,1,1,0,0,0,1 @ F,0,0,1,0,0.99971,0,1 @ F,0,0,1,0,0.99971,0,1 @ F,0,0,1,0,0,0,1"
       unit="px"
       method="auto"
       mode="F"
       radius="0"
       chamfer_steps="1"
       flexible="false"
       use_knot_distance="true"
       apply_no_radius="true"
       apply_with_radius="true"
       only_selected="false"
       hide_knots="false" />
    <inkscape:path-effect
       effect="join_type"
       id="path-effect863"
       is_visible="true"
       lpeversion="1"
       linecap_type="butt"
       line_width="1.34"
       linejoin_type="extrp_arc"
       miter_limit="100"
       attempt_force_join="true" />
    <inkscape:path-effect
       effect="fillet_chamfer"
       id="path-effect880"
       is_visible="true"
       lpeversion="1"
       satellites_param="F,0,0,1,0,0.33304,0,1 @ F,0,0,1,0,0.33305,0,1 @ F,0,0,1,0,0,0,1 @ F,0,0,1,0,0,0,1"
       unit="px"
       method="auto"
       mode="F"
       radius="0.5"
       chamfer_steps="1"
       flexible="false"
       use_knot_distance="true"
       apply_no_radius="true"
       apply_with_radius="true"
       only_selected="false"
       hide_knots="false" />
    <inkscape:path-effect
       effect="join_type"
       id="path-effect882"
       is_visible="false"
       lpeversion="1"
       linecap_type="butt"
       line_width="0.77"
       linejoin_type="extrp_arc"
       miter_limit="100"
       attempt_force_join="true" />
  </defs>
  <style
     id="s0">
.success { fill:#009909; }
.warning { fill:#FF1990; }
.error { fill:#00AAFF; }
</style>
  <style
     id="s2">
@import '../../highlights.css';
</style>
  <sodipodi:namedview
     inkscape:document-rotation="0"
     inkscape:current-layer="edit-clone-unlink"
     inkscape:window-maximized="1"
     inkscape:window-y="-9"
     inkscape:window-x="-9"
     inkscape:window-height="1013"
     inkscape:window-width="1920"
     inkscape:cy="6.2059151"
     inkscape:cx="21.363691"
     inkscape:zoom="28.787499"
     showgrid="true"
     id="namedview"
     guidetolerance="10"
     gridtolerance="10"
     objecttolerance="10">
    <inkscape:grid
       id="grid"
       type="xygrid"
       spacingx="0.66667"
       spacingy="0.66667" />
  </sodipodi:namedview>
  <g
     id="edit-clone-unlink"
     inkscape:label="00014"
     transform="translate(-45,-627.3622)">
    <path
       id="rect848"
       d="m 60.33674,635.36224 v -1.66697 c 0,-0.92553 -0.744175,-1.66971 -1.66971,-1.66971 h -2.0006 c -0.925603,0 -1.669649,0.74466 -1.668885,1.67026 l 0.0025,3.00031 1.34,-0.001 -0.0025,-3.00031 c -1.48e-4,-0.17838 0.150506,-0.32916 0.328885,-0.32916 h 2.0006 c 0.178714,0 0.32971,0.151 0.32971,0.32971 v 1.66697 z"
       inkscape:path-effect="#path-effect876;#path-effect863"
       inkscape:original-d="m 59.66674,635.36224 v -2.66668 h -4.00002 l 0.0033,4.00002"
       sodipodi:nodetypes="cccc"
       class="base"
       style="opacity:0.9" />
    <g
       id="g851"
       class="base"
       transform="matrix(2.0245297,0,0,1.8505914,36.112188,619.92922)"
       style="opacity:0.9">
      <path
         id="path878"
         d="m 7.3574723,9.0600027 h 3.2854647 a 0.33305,0.33305 45 0 1 0.33305,0.33305 V 11.581732 H 7.0244323 V 9.3930427 a 0.33304,0.33304 135 0 1 0.33304,-0.33304 z"
         sodipodi:nodetypes="ccccc"
         inkscape:path-effect="#path-effect880"
         inkscape:original-d="M 7.0244323,9.0600027 H 10.975987 V 11.581732 H 7.0244323 Z" />
    </g>
    <path
       sodipodi:nodetypes="cccccccccccc"
       d="m 47.66668,629.36221 v 1.41667 8.58338 h 2.00001 v -1.33334 h -0.66667 v -7.33337 h 5.33336 v 0.66667 h 1.33334 v -2.00001 z"
       style="color:#000000;font-style:normal;font-variant:normal;font-weight:normal;font-stretch:normal;font-size:medium;line-height:normal;font-family:sans-serif;font-variant-ligatures:normal;font-variant-position:normal;font-variant-caps:normal;font-variant-numeric:normal;font-variant-alternates:normal;font-variant-east-asian:normal;font-feature-settings:normal;font-variation-settings:normal;text-indent:0;text-align:start;text-decoration:none;text-decoration-line:none;text-decoration-style:solid;text-decoration-color:#000000;letter-spacing:normal;word-spacing:normal;text-transform:none;writing-mode:lr-tb;direction:ltr;text-orientation:mixed;dominant-baseline:auto;baseline-shift:baseline;text-anchor:start;white-space:normal;shape-padding:0;shape-margin:0;inline-size:0;clip-rule:nonzero;display:inline;overflow:visible;visibility:visible;opacity:1;isolation:auto;mix-blend-mode:normal;color-interpolation:sRGB;color-interpolation-filters:linearRGB;solid-color:#000000;solid-opacity:1;vector-effect:none;fill-opacity:1;fill-rule:nonzero;stroke:none;stroke-width:1.5;stroke-linecap:butt;stroke-linejoin:miter;stroke-miterlimit:4;stroke-dasharray:none;stroke-dashoffset:0;stroke-opacity:1;color-rendering:auto;image-rendering:auto;shape-rendering:auto;text-rendering:auto;enable-background:accumulate;stop-color:#000000;stop-opacity:1"
       id="path862-9" />
  </g>
</svg>
