<?xml version="1.0" encoding="UTF-8" standalone="no"?>
<svg
   inkscape:version="1.1 (c68e22c387, 2021-05-23)"
   sodipodi:docname="layer-top-symbolic.svg"
   viewBox="0 0 16 16"
   height="16"
   width="16"
   id="svg1"
   version="1.1"
   xmlns:inkscape="http://www.inkscape.org/namespaces/inkscape"
   xmlns:sodipodi="http://sodipodi.sourceforge.net/DTD/sodipodi-0.dtd"
   xmlns="http://www.w3.org/2000/svg"
   xmlns:svg="http://www.w3.org/2000/svg"
   xmlns:rdf="http://www.w3.org/1999/02/22-rdf-syntax-ns#"
   xmlns:cc="http://creativecommons.org/ns#"
   xmlns:dc="http://purl.org/dc/elements/1.1/">
  <metadata
     id="metadata8081">
    <rdf:RDF>
      <cc:Work
         rdf:about="">
        <dc:format>image/svg+xml</dc:format>
        <dc:type
           rdf:resource="http://purl.org/dc/dcmitype/StillImage" />
      </cc:Work>
    </rdf:RDF>
  </metadata>
  <defs
     id="defs8079" />
  <style
     id="s0">
.success { fill:#009909; }
.warning { fill:#FF1990; }
.error { fill:#00AAFF; }
</style>
  <style
     id="s2">
@import '../../highlights.css';
</style>
  <sodipodi:namedview
     inkscape:document-rotation="0"
     inkscape:current-layer="svg1"
     inkscape:window-maximized="1"
     inkscape:window-y="-9"
     inkscape:window-x="-9"
     inkscape:window-height="1013"
     inkscape:window-width="1920"
     inkscape:cy="-0.085896921"
     inkscape:cx="47.844585"
     inkscape:zoom="5.8209304"
     showgrid="true"
     id="namedview"
     guidetolerance="10"
     gridtolerance="10"
     objecttolerance="10"
     pagecolor="#ffffff"
     bordercolor="#999999"
     borderopacity="1"
     inkscape:pageshadow="0"
     inkscape:pageopacity="0"
     inkscape:pagecheckerboard="0">
    <inkscape:grid
       id="grid"
       type="xygrid" />
  </sodipodi:namedview>
  <path
     id="path936"
     d="M 11.5,5 14,10 H 9 Z"
     sodipodi:nodetypes="cccc"
     class="error"
     style="fill:#00aaff;stroke-width:1.33333" />
  <path
     d="M 2.9999473,6.99997 8,7 7,9.00001 1.9999473,8.99998 Z"
     id="rect12191-4"
     class="base"
     style="opacity:0.5;fill:#616161"
     sodipodi:nodetypes="ccccc" />
  <path
     d="M 3,2 13,1.99999 12,4 2,4.00001 Z"
     id="rect12193-8"
     class="base"
     style="fill:#4d4d4d"
     sodipodi:nodetypes="ccccc" />
  <path
     d="m 3,12 h 7 L 9,14.00001 H 2 Z"
     id="rect12195-2"
     class="base"
     style="opacity:0.5;fill:#616161"
     sodipodi:nodetypes="ccccc" />
</svg>
