<?xml version="1.0" encoding="UTF-8" standalone="no"?>
<svg
   xmlns:dc="http://purl.org/dc/elements/1.1/"
   xmlns:cc="http://creativecommons.org/ns#"
   xmlns:rdf="http://www.w3.org/1999/02/22-rdf-syntax-ns#"
   xmlns:svg="http://www.w3.org/2000/svg"
   xmlns="http://www.w3.org/2000/svg"
   xmlns:sodipodi="http://sodipodi.sourceforge.net/DTD/sodipodi-0.dtd"
   xmlns:inkscape="http://www.inkscape.org/namespaces/inkscape"
   version="1.1"
   id="svg1"
   width="16"
   height="16"
   viewBox="0 0 16 16"
   sodipodi:docname="node-break-symbolic.svg"
   inkscape:version="1.0.1 (3bc2e813f5, 2020-09-07)">
  <style
     id="s0">
   .success { fill: #009909; }
   .warning { fill: #FF1990; }
   .error   { fill: #00AAFF; }
  </style>
  <style
     id="s2"> 
     @import '../../highlights.css'; 
  </style>
  <metadata
     id="metadata1050">
    <rdf:RDF>
      <cc:Work
         rdf:about="">
        <dc:format>image/svg+xml</dc:format>
        <dc:type
           rdf:resource="http://purl.org/dc/dcmitype/StillImage" />
        <dc:title />
      </cc:Work>
    </rdf:RDF>
  </metadata>
  <defs
     id="defs1048" />
  <sodipodi:namedview
     objecttolerance="10"
     gridtolerance="10"
     guidetolerance="10"
     id="namedview"
     showgrid="true"
     inkscape:zoom="27.441993"
     inkscape:cx="13.249563"
     inkscape:cy="7.3147347"
     inkscape:window-width="1920"
     inkscape:window-height="1013"
     inkscape:window-x="-9"
     inkscape:window-y="-9"
     inkscape:window-maximized="1"
     inkscape:current-layer="node-break"
     inkscape:document-rotation="0">
    <inkscape:grid
       type="xygrid"
       id="grid"
       spacingx="0.66666667"
       spacingy="0.66667" />
  </sodipodi:namedview>
  <g
     transform="translate(-468,-558.36218)"
     inkscape:label="00165"
     id="node-break">
    <path
       d="m 470.6666,562.36221 h 3.99999 v 0.66666 h -3.99999 z"
       id="path10583"
       inkscape:connector-curvature="0"
       sodipodi:nodetypes="ccccc"
       class="base"
       style="opacity:0.9;fill:#4d4d4d;stroke-width:0.999996" />
    <path
       class="error"
       style="opacity:1;fill:#00aaff;stroke-width:0.999993"
       d="m 477.99992,572.36226 h 3.33335 v -3.33335 h -3.33335 z"
       id="rect10585"
       inkscape:connector-curvature="0"
       sodipodi:nodetypes="ccccc" />
    <path
       d="m 469.33326,570.36225 2.00001,10e-6 v 0.66666 l -2.00001,-10e-6 z"
       id="path10583-8"
       inkscape:connector-curvature="0"
       sodipodi:nodetypes="ccccc"
       class="base"
       style="opacity:0.9;fill:#4d4d4d;stroke-width:0.999997" />
    <path
       d="m 483.33333,570.36225 -2.00001,10e-6 v 0.66666 l 2.00001,-10e-6 z"
       id="path863"
       inkscape:connector-curvature="0"
       sodipodi:nodetypes="ccccc"
       class="base"
       style="opacity:0.9;fill:#4d4d4d;stroke-width:0.999997" />
    <path
       class="base"
       d="m 477.99994,564.36222 h -3.33335 v -3.33335 h 3.33335 z"
       id="path865"
       inkscape:connector-curvature="0"
       sodipodi:nodetypes="ccccc"
       style="opacity:0.8" />
    <path
       d="m 477.99992,562.36221 h 3.99999 v 0.66666 h -3.99999 z"
       id="path857"
       inkscape:connector-curvature="0"
       sodipodi:nodetypes="ccccc"
       class="base"
       style="opacity:0.9;fill:#4d4d4d;stroke-width:0.999996" />
    <path
       class="error"
       style="opacity:1;fill:#00aaff;stroke-width:0.999993"
       d="m 471.33326,572.36226 h 3.33335 v -3.33335 h -3.33335 z"
       id="path859"
       inkscape:connector-curvature="0"
       sodipodi:nodetypes="ccccc" />
  </g>
</svg>
