<?xml version="1.0" encoding="UTF-8" standalone="no"?>
<svg
   xmlns:dc="http://purl.org/dc/elements/1.1/"
   xmlns:cc="http://creativecommons.org/ns#"
   xmlns:rdf="http://www.w3.org/1999/02/22-rdf-syntax-ns#"
   xmlns:svg="http://www.w3.org/2000/svg"
   xmlns="http://www.w3.org/2000/svg"
   xmlns:sodipodi="http://sodipodi.sourceforge.net/DTD/sodipodi-0.dtd"
   xmlns:inkscape="http://www.inkscape.org/namespaces/inkscape"
   inkscape:version="1.0.1 (3bc2e813f5, 2020-09-07)"
   sodipodi:docname="path-mode-bspline-symbolic.svg"
   viewBox="0 0 16 16"
   height="16"
   width="16"
   id="svg1"
   version="1.1">
  <metadata
     id="metadata4935">
    <rdf:RDF>
      <cc:Work
         rdf:about="">
        <dc:format>image/svg+xml</dc:format>
        <dc:type
           rdf:resource="http://purl.org/dc/dcmitype/StillImage" />
        <dc:title />
      </cc:Work>
    </rdf:RDF>
  </metadata>
  <defs
     id="defs4933">
    <inkscape:path-effect
       effect="join_type"
       id="path-effect837"
       is_visible="true"
       lpeversion="1"
       linecap_type="butt"
       line_width="0.34"
       linejoin_type="extrp_arc"
       miter_limit="100"
       attempt_force_join="true" />
    <inkscape:path-effect
       effect="join_type"
       id="path-effect844"
       is_visible="true"
       lpeversion="1"
       linecap_type="round"
       line_width="0.7"
       linejoin_type="extrp_arc"
       miter_limit="100"
       attempt_force_join="true" />
  </defs>
  <style
     id="s0">
.success { fill:#009909; }
.warning { fill:#FF1990; }
.error { fill:#00AAFF; }
</style>
  <style
     id="s2">
@import '../../highlights.css';
</style>
  <sodipodi:namedview
     inkscape:document-rotation="0"
     inkscape:current-layer="g48628"
     inkscape:window-maximized="1"
     inkscape:window-y="-9"
     inkscape:window-x="-9"
     inkscape:window-height="1013"
     inkscape:window-width="1920"
     inkscape:cy="7.242399"
     inkscape:cx="21.247583"
     inkscape:zoom="31.843366"
     showgrid="true"
     id="namedview"
     guidetolerance="10"
     gridtolerance="10"
     objecttolerance="10">
    <inkscape:grid
       id="grid"
       type="xygrid"
       spacingx="0.66666667"
       spacingy="0.66667" />
  </sodipodi:namedview>
  <g
     id="path-mode-bspline"
     inkscape:label="00216"
     transform="translate(-1009,-557.36218)">
    <g
       transform="matrix(1.395066,-1.366399,1.366399,1.395066,-404.6688,1807.641)"
       id="g48628">
      <path
         d="m 961.15491,55.224886 4.18065,-4.268356 -0.2404,0.0025 4.26833,4.180622 0.2379,-0.242898 -4.38978,-4.299576 -4.2996,4.389805 z"
         id="path6177-8-2"
         style="opacity:0.5"
         inkscape:path-effect="#path-effect837"
         inkscape:original-d="m 961.03346,55.105932 4.18065,-4.268356 4.26833,4.180622"
         sodipodi:nodetypes="ccc" />
      <path
         id="path1021"
         d="m 962.13457,55.701894 c 1.30252,-1.355281 4.3115,-1.916351 6.2655,-0.05902 a 0.35,0.35 0 1 0 0.48226,-0.507366 c -2.22468,-2.114616 -5.68464,-1.550002 -7.25246,0.08134 a 0.35,0.35 0 1 0 0.5047,0.485052 z"
         class="base"
         inkscape:path-effect="#path-effect844"
         inkscape:original-d="m 961.88222,55.459368 c 1.43517,-1.49331 4.66964,-2.056152 6.75898,-0.07018"
         sodipodi:nodetypes="cc" />
    </g>
  </g>
</svg>
