<?xml version="1.0" encoding="UTF-8" standalone="no"?>
<svg
   xmlns:dc="http://purl.org/dc/elements/1.1/"
   xmlns:cc="http://creativecommons.org/ns#"
   xmlns:rdf="http://www.w3.org/1999/02/22-rdf-syntax-ns#"
   xmlns:svg="http://www.w3.org/2000/svg"
   xmlns="http://www.w3.org/2000/svg"
   xmlns:sodipodi="http://sodipodi.sourceforge.net/DTD/sodipodi-0.dtd"
   xmlns:inkscape="http://www.inkscape.org/namespaces/inkscape"
   inkscape:version="1.0.1 (3bc2e813f5, 2020-09-07)"
   sodipodi:docname="path-outset-symbolic.svg"
   viewBox="0 0 16 16"
   height="16"
   width="16"
   id="svg1"
   version="1.1">
  <metadata
     id="metadata1898">
    <rdf:RDF>
      <cc:Work
         rdf:about="">
        <dc:format>image/svg+xml</dc:format>
        <dc:type
           rdf:resource="http://purl.org/dc/dcmitype/StillImage" />
      </cc:Work>
    </rdf:RDF>
  </metadata>
  <defs
     id="defs1896" />
  <style
     id="s0">
.success { fill:#009909; }
.warning { fill:#FF1990; }
.error { fill:#00AAFF; }
</style>
  <style
     id="s2">
@import '../../highlights.css';
</style>
  <sodipodi:namedview
     inkscape:document-rotation="0"
     inkscape:current-layer="path-outset"
     inkscape:window-maximized="1"
     inkscape:window-y="-9"
     inkscape:window-x="-9"
     inkscape:window-height="1013"
     inkscape:window-width="1920"
     inkscape:cy="5.1916208"
     inkscape:cx="20.374936"
     inkscape:zoom="15.761662"
     showgrid="true"
     id="namedview"
     guidetolerance="10"
     gridtolerance="10"
     objecttolerance="10">
    <inkscape:grid
       id="grid"
       type="xygrid" />
  </sodipodi:namedview>
  <g
     id="path-outset"
     inkscape:label="00084"
     transform="matrix(0.875,0,0,0.8750004,-143.375,-652.94221)"
     style="stroke-width:1.14286">
    <path
       style="opacity:0;fill:none;stroke-width:1.14286"
       d="m 165,747.36218 h 16 v 16 h -16 z"
       id="rect19563"
       inkscape:connector-curvature="0" />
    <path
       id="path19594"
       d="m 165,747.36218 v 2.28572 c 8,-0.031 13.71429,5.71428 13.71429,13.71428 H 181 c 0,-9.14286 -6.85714,-16 -16,-16 z"
       style="opacity:1"
       class="base" />
    <path
       class="base"
       id="path19605"
       d="m 168.42857,754.21932 5.71429,5.71429 0,-5.71429 z" />
    <path
       id="path19607"
       d="m 165,756.50504 v 2.28571 c 2.28571,0 4.57143,2.28571 4.57143,4.57143 h 2.28571 c 0,-3.82494 -3.00578,-6.85714 -6.85714,-6.85714 z"
       style="opacity:0.5"
       class="base" />
  </g>
</svg>
