<?xml version="1.0" encoding="UTF-8" standalone="no"?>
<svg
   inkscape:version="1.1 (c68e22c387, 2021-05-23)"
   sodipodi:docname="selection-move-to-layer-above-symbolic.svg"
   viewBox="0 0 16 16"
   height="16"
   width="16"
   id="svg1"
   version="1.1"
   xmlns:inkscape="http://www.inkscape.org/namespaces/inkscape"
   xmlns:sodipodi="http://sodipodi.sourceforge.net/DTD/sodipodi-0.dtd"
   xmlns="http://www.w3.org/2000/svg"
   xmlns:svg="http://www.w3.org/2000/svg"
   xmlns:rdf="http://www.w3.org/1999/02/22-rdf-syntax-ns#"
   xmlns:cc="http://creativecommons.org/ns#"
   xmlns:dc="http://purl.org/dc/elements/1.1/">
  <metadata
     id="metadata8674">
    <rdf:RDF>
      <cc:Work
         rdf:about="">
        <dc:format>image/svg+xml</dc:format>
        <dc:type
           rdf:resource="http://purl.org/dc/dcmitype/StillImage" />
      </cc:Work>
    </rdf:RDF>
  </metadata>
  <defs
     id="defs8672" />
  <style
     id="s0">
.success { fill:#009909; }
.warning { fill:#FF1990; }
.error { fill:#00AAFF; }
</style>
  <style
     id="s2">
@import '../../highlights.css';
</style>
  <sodipodi:namedview
     inkscape:document-rotation="0"
     inkscape:current-layer="selection-move-to-layer-below"
     inkscape:window-maximized="1"
     inkscape:window-y="-9"
     inkscape:window-x="-9"
     inkscape:window-height="1013"
     inkscape:window-width="1920"
     inkscape:cy="4.3840459"
     inkscape:cx="7.6289302"
     inkscape:zoom="14.484337"
     showgrid="true"
     id="namedview"
     guidetolerance="10"
     gridtolerance="10"
     objecttolerance="10"
     pagecolor="#ffffff"
     bordercolor="#999999"
     borderopacity="1"
     inkscape:pageshadow="0"
     inkscape:pageopacity="0"
     inkscape:pagecheckerboard="0">
    <inkscape:grid
       id="grid"
       type="xygrid" />
  </sodipodi:namedview>
  <g
     id="selection-move-to-layer-below"
     inkscape:label="00047"
     transform="matrix(1,0,0,0.999271,-105,-626.89289)">
    <g
       id="g1716"
       style="opacity:0.6">
      <path
         style="opacity:1;stroke-width:1.41421"
         d="m 106,642.36117 h 1 v -2 h -1 z"
         id="rect19538"
         inkscape:connector-curvature="0" />
      <path
         style="opacity:1;stroke-width:1.41421"
         d="m 106,642.36117 h 2 v -1 h -2 z"
         id="rect19540"
         inkscape:connector-curvature="0" />
      <path
         style="opacity:1;stroke-width:1.41421"
         d="m 110,642.36117 h 2 v -1 h -2 z"
         id="rect19542"
         inkscape:connector-curvature="0" />
      <path
         style="opacity:1;stroke-width:1.41421"
         d="m 114,642.36044 h 2 v -1 h -2 z"
         id="rect19546"
         inkscape:connector-curvature="0" />
      <path
         style="opacity:1;stroke-width:1.41421"
         d="m 118,642.36044 h 2 v -1 h -2 z"
         id="rect19548"
         inkscape:connector-curvature="0" />
      <path
         style="opacity:1;stroke-width:1.41421"
         d="m 106,630.35242 h 1 v -2 h -1 z"
         id="rect19550"
         inkscape:connector-curvature="0" />
      <path
         style="opacity:1;stroke-width:1.41421"
         d="m 106,629.35169 h 2 v -1 h -2 z"
         id="rect19552"
         inkscape:connector-curvature="0" />
      <path
         style="opacity:1;stroke-width:1.41421"
         d="m 106,638.35825 h 1 v -2 h -1 z"
         id="rect19554"
         inkscape:connector-curvature="0" />
      <path
         style="opacity:1;stroke-width:1.41421"
         d="m 106,634.35534 h 1 v -2 h -1 z"
         id="rect19556"
         inkscape:connector-curvature="0" />
      <path
         style="opacity:1;stroke-width:1.41421"
         d="m 110,629.35169 h 2 v -1 h -2 z"
         id="rect19560"
         inkscape:connector-curvature="0" />
      <path
         style="opacity:1;stroke-width:1.41421"
         d="m 114,629.35169 h 2 v -1 h -2 z"
         id="rect19564"
         inkscape:connector-curvature="0" />
      <path
         style="opacity:1;stroke-width:1.41421"
         d="m 118,629.35169 h 2 v -1 h -2 z"
         id="rect19568"
         inkscape:connector-curvature="0" />
      <path
         style="opacity:1;stroke-width:1.41421"
         d="m 119,630.35242 h 1 v -2 h -1 z"
         id="rect19570"
         inkscape:connector-curvature="0" />
      <path
         style="opacity:1;stroke-width:1.41421"
         d="m 119,642.35971 h 1 v -2 h -1 z"
         id="path1222"
         inkscape:connector-curvature="0" />
      <path
         style="opacity:1;stroke-width:1.41421"
         d="m 119,638.35679 h 1 v -2 h -1 z"
         id="path1224"
         inkscape:connector-curvature="0" />
      <path
         style="opacity:1;stroke-width:1.41421"
         d="m 119,634.35388 h 1 v -2 h -1 z"
         id="rect19572"
         inkscape:connector-curvature="0" />
    </g>
    <path
       inkscape:connector-curvature="0"
       id="path19536-5"
       d="m 112,639.35898 h 2 v -4.9974 l 2,1.00073 1,2.1e-4 v -1.00094 l -4,-3.00219 -4,3.00219 v 1.00094 l 1,-2.1e-4 2,-1.00073 z"
       sodipodi:nodetypes="cccccccccccc" />
  </g>
</svg>
