<?xml version="1.0" encoding="UTF-8" standalone="no"?>
<svg
   inkscape:version="1.1 (c68e22c387, 2021-05-23)"
   sodipodi:docname="show-bounding-box-symbolic.svg"
   viewBox="0 0 16 16"
   height="16"
   width="16"
   id="svg1"
   version="1.1"
   xmlns:inkscape="http://www.inkscape.org/namespaces/inkscape"
   xmlns:sodipodi="http://sodipodi.sourceforge.net/DTD/sodipodi-0.dtd"
   xmlns="http://www.w3.org/2000/svg"
   xmlns:svg="http://www.w3.org/2000/svg"
   xmlns:rdf="http://www.w3.org/1999/02/22-rdf-syntax-ns#"
   xmlns:cc="http://creativecommons.org/ns#"
   xmlns:dc="http://purl.org/dc/elements/1.1/">
  <metadata
     id="metadata1502">
    <rdf:RDF>
      <cc:Work
         rdf:about="">
        <dc:format>image/svg+xml</dc:format>
        <dc:type
           rdf:resource="http://purl.org/dc/dcmitype/StillImage" />
      </cc:Work>
    </rdf:RDF>
  </metadata>
  <defs
     id="defs1500" />
  <style
     id="s0">
.success { fill:#009909; }
.warning { fill:#FF1990; }
.error { fill:#00AAFF; }
</style>
  <style
     id="s2">
@import '../../highlights.css';
</style>
  <sodipodi:namedview
     inkscape:document-rotation="0"
     inkscape:current-layer="svg1"
     inkscape:window-maximized="1"
     inkscape:window-y="-9"
     inkscape:window-x="-9"
     inkscape:window-height="1013"
     inkscape:window-width="1920"
     inkscape:cy="8.6562824"
     inkscape:cx="3.6718588"
     inkscape:zoom="30.09375"
     showgrid="true"
     id="namedview"
     guidetolerance="10"
     gridtolerance="10"
     objecttolerance="10"
     pagecolor="#ffffff"
     bordercolor="#999999"
     borderopacity="1"
     inkscape:pageshadow="0"
     inkscape:pageopacity="0"
     inkscape:pagecheckerboard="0">
    <inkscape:grid
       id="grid"
       type="xygrid"
       spacingx="0.66666667"
       spacingy="0.66667" />
  </sodipodi:namedview>
  <g
     id="g1049-4">
    <g
       id="g1019-6">
      <path
         id="path943-3"
         width="1.3333333"
         height="0.66666996"
         x="3.3333592"
         y="1.9999797"
         ry="0"
         sodipodi:type="rect"
         class="base"
         d="m 3.3333592,1.9999797 h 1.3333333 v 0.66667 H 3.3333592 Z" />
      <path
         id="path949-3"
         width="1.3333333"
         height="0.66666996"
         x="6.0000262"
         y="1.9999797"
         ry="0"
         sodipodi:type="rect"
         class="base"
         d="m 6.0000262,1.9999797 h 1.3333333 v 0.66667 H 6.0000262 Z" />
      <path
         id="path951-5"
         width="1.3333333"
         height="0.66666996"
         x="8.6666927"
         y="1.99998"
         ry="0"
         sodipodi:type="rect"
         class="base"
         d="M 8.6666927,1.99998 H 10.000026 V 2.6666499 H 8.6666927 Z" />
      <path
         id="path953-3"
         width="1.3333333"
         height="0.66666996"
         x="11.33336"
         y="1.9999797"
         ry="0"
         sodipodi:type="rect"
         class="base"
         d="m 11.33336,1.9999797 h 1.333333 v 0.66667 H 11.33336 Z" />
      <path
         id="path957-6"
         width="1.3333333"
         height="0.66666996"
         x="3.3333592"
         y="13.333369"
         ry="0"
         sodipodi:type="rect"
         class="base"
         d="m 3.3333592,13.333369 h 1.3333333 v 0.66667 H 3.3333592 Z" />
      <path
         id="path959-1"
         width="1.3333333"
         height="0.66666996"
         x="6.0000262"
         y="13.333369"
         ry="0"
         sodipodi:type="rect"
         class="base"
         d="m 6.0000262,13.333369 h 1.3333333 v 0.66667 H 6.0000262 Z" />
      <path
         id="path961-7"
         width="1.3333333"
         height="0.66666996"
         x="8.6666927"
         y="13.33337"
         ry="0"
         sodipodi:type="rect"
         class="base"
         d="m 8.6666927,13.33337 h 1.3333333 v 0.66667 H 8.6666927 Z" />
      <path
         id="path963-0"
         width="1.3333333"
         height="0.66666996"
         x="11.33336"
         y="13.333369"
         ry="0"
         sodipodi:type="rect"
         class="base"
         d="m 11.33336,13.333369 h 1.333333 v 0.66667 H 11.33336 Z" />
      <path
         id="path979-0"
         width="1.3333333"
         height="0.66666996"
         x="2.0000398"
         y="-12.666693"
         ry="0"
         sodipodi:type="rect"
         class="base"
         transform="rotate(90)"
         d="m 2.0000398,-12.666693 h 1.3333333 v 0.66667 H 2.0000398 Z" />
      <path
         id="path981-7"
         width="1.3333333"
         height="0.66666996"
         x="4.6667066"
         y="-12.666693"
         ry="0"
         sodipodi:type="rect"
         class="base"
         transform="rotate(90)"
         d="m 4.6667066,-12.666693 h 1.3333332 v 0.66667 H 4.6667066 Z" />
      <path
         id="path983-6"
         width="1.3333333"
         height="0.66666996"
         x="7.3333735"
         y="-12.666693"
         ry="0"
         sodipodi:type="rect"
         class="base"
         transform="rotate(90)"
         d="m 7.3333735,-12.666693 h 1.3333333 v 0.66667 H 7.3333735 Z" />
      <path
         id="path985-7"
         width="1.3333333"
         height="0.66666996"
         x="10.000039"
         y="-12.666693"
         ry="0"
         sodipodi:type="rect"
         class="base"
         transform="rotate(90)"
         d="m 10.000039,-12.666693 h 1.333333 v 0.66667 h -1.333333 z" />
      <path
         id="path987-4"
         width="1.3333333"
         height="0.66666996"
         x="12.666706"
         y="-12.666693"
         ry="0"
         sodipodi:type="rect"
         class="base"
         transform="rotate(90)"
         d="m 12.666706,-12.666693 h 1.333333 v 0.66667 h -1.333333 z" />
      <path
         id="path989-1"
         width="1.3333333"
         height="0.66666996"
         x="2.00001"
         y="-4"
         ry="0"
         sodipodi:type="rect"
         class="base"
         transform="rotate(90)"
         d="m 2.00001,-4 h 1.3333333 v 0.66667 H 2.00001 Z" />
      <path
         id="path991-3"
         width="1.3333333"
         height="0.66666996"
         x="4.6666765"
         y="-4"
         ry="0"
         sodipodi:type="rect"
         class="base"
         transform="rotate(90)"
         d="m 4.6666765,-4 h 1.3333333 v 0.66667 H 4.6666765 Z" />
      <path
         id="path993-3"
         width="1.3333333"
         height="0.66666996"
         x="7.3333435"
         y="-3.999999"
         ry="0"
         sodipodi:type="rect"
         class="base"
         transform="rotate(90)"
         d="m 7.3333435,-3.999999 h 1.3333333 v 0.6666699 H 7.3333435 Z" />
      <path
         id="path995-8"
         width="1.3333333"
         height="0.66666996"
         x="10.00001"
         y="-4"
         ry="0"
         sodipodi:type="rect"
         class="base"
         transform="rotate(90)"
         d="m 10.00001,-4 h 1.333333 v 0.66667 H 10.00001 Z" />
      <path
         id="path997-2"
         width="1.3333333"
         height="0.66666996"
         x="12.666677"
         y="-3.999999"
         ry="0"
         sodipodi:type="rect"
         class="base"
         transform="rotate(90)"
         d="m 12.666677,-3.999999 h 1.333334 v 0.6666699 h -1.333334 z" />
    </g>
  </g>
</svg>
