<?xml version="1.0" encoding="UTF-8" standalone="no"?>
<svg
   version="1.1"
   id="svg1"
   width="16"
   height="16"
   viewBox="0 0 16 16"
   sodipodi:docname="snap-bounding-box-center-symbolic.svg"
   inkscape:version="1.1 (c68e22c387, 2021-05-23)"
   xmlns:inkscape="http://www.inkscape.org/namespaces/inkscape"
   xmlns:sodipodi="http://sodipodi.sourceforge.net/DTD/sodipodi-0.dtd"
   xmlns="http://www.w3.org/2000/svg"
   xmlns:svg="http://www.w3.org/2000/svg"
   xmlns:rdf="http://www.w3.org/1999/02/22-rdf-syntax-ns#"
   xmlns:cc="http://creativecommons.org/ns#"
   xmlns:dc="http://purl.org/dc/elements/1.1/">
  <style
     id="s0">
   .success { fill: #009909; }
   .warning { fill: #FF1990; }
   .error   { fill: #00AAFF; }
  </style>
  <style
     id="s2"> 
     @import '../../highlights.css'; 
  </style>
  <metadata
     id="metadata1468">
    <rdf:RDF>
      <cc:Work
         rdf:about="">
        <dc:format>image/svg+xml</dc:format>
        <dc:type
           rdf:resource="http://purl.org/dc/dcmitype/StillImage" />
      </cc:Work>
    </rdf:RDF>
  </metadata>
  <defs
     id="defs1466" />
  <sodipodi:namedview
     inkscape:snap-bbox="true"
     objecttolerance="10"
     gridtolerance="10"
     guidetolerance="10"
     id="namedview"
     showgrid="true"
     inkscape:zoom="44.8"
     inkscape:cx="7.7008929"
     inkscape:cy="8.359375"
     inkscape:window-width="1920"
     inkscape:window-height="1013"
     inkscape:window-x="-9"
     inkscape:window-y="-9"
     inkscape:window-maximized="1"
     inkscape:current-layer="snap-bounding-box-center"
     inkscape:document-rotation="0"
     pagecolor="#ffffff"
     bordercolor="#999999"
     borderopacity="1"
     inkscape:pageshadow="0"
     inkscape:pageopacity="0"
     inkscape:pagecheckerboard="0">
    <inkscape:grid
       type="xygrid"
       id="grid" />
  </sodipodi:namedview>
  <g
     transform="matrix(0.999996,0,0,1,-708.93484,-506.42468)"
     id="snap-bounding-box-center"
     inkscape:label="00324">
    <path
       inkscape:connector-curvature="0"
       id="rect22584"
       d="m 708.99982,506.48691 h 15.93774 v 15.93773 h -15.93774 z"
       style="opacity:0;fill:none" />
    <path
       inkscape:connector-curvature="0"
       id="rect22590"
       d="m 714.95328,522.42468 v -1.99222 h 3.98444 v 1.99222 z"
       style="opacity:0.5" />
    <path
       inkscape:connector-curvature="0"
       id="rect22594"
       d="m 714.9377,508.4169 v -1.99222 h 4.00002 v 1.99222 z"
       style="opacity:0.5;stroke-width:1.00195" />
    <path
       inkscape:connector-curvature="0"
       id="rect22604"
       d="m 715.9377,518.42468 h 2.00001 v -8 h -2.00001 z"
       style="opacity:1;stroke-width:0.897915"
       class="error" />
    <path
       inkscape:connector-curvature="0"
       id="rect22614"
       d="m 712.9377,513.42468 h 8.00002 v 2 h -8.00002 z"
       style="opacity:1;stroke-width:0.897933"
       class="error" />
    <path
       inkscape:connector-curvature="0"
       transform="matrix(1.000004,0,0,1,708.93768,506.42468)"
       d="M 0,0 V 0.015625 1.9921875 4 H 1.9921875 V 1.9921875 H 3.984375 V 0 Z"
       style="opacity:0.5;stroke-width:0.999998"
       id="path1480" />
    <path
       inkscape:connector-curvature="0"
       transform="matrix(1.000004,0,0,1,708.93768,506.42468)"
       d="M 0,12 V 14.007812 15.984375 16 H 3.984375 V 14.007812 H 1.9921875 V 12 Z"
       style="opacity:0.5;stroke-width:0.999998"
       id="path1476" />
    <path
       inkscape:connector-curvature="0"
       transform="matrix(1.000004,0,0,1,708.93768,506.42468)"
       d="M 12.007812,0 V 1.9921875 H 14 V 4 h 1.992188 V 1.9921875 0.015625 0 Z"
       style="opacity:0.5;stroke-width:0.999998"
       id="path1482" />
    <path
       inkscape:connector-curvature="0"
       transform="matrix(1.000004,0,0,1,708.93768,506.42468)"
       d="m 14,12 v 2.007812 H 12.007812 V 16 h 3.984376 V 15.984375 14.007812 12 Z"
       style="opacity:0.5;stroke-width:0.999998"
       id="path1474" />
    <path
       inkscape:connector-curvature="0"
       id="rect22616"
       d="m 708.93768,512.42468 h 1.99221 v 4 h -1.99221 z"
       style="opacity:0.5;stroke-width:1.00195" />
    <path
       inkscape:connector-curvature="0"
       id="rect22618"
       d="m 722.94552,512.42468 h 1.99222 v 4 h -1.99222 z"
       style="opacity:0.5;stroke-width:1.00195" />
  </g>
</svg>
