<?xml version="1.0" encoding="UTF-8" standalone="no"?>
<svg
   xmlns:dc="http://purl.org/dc/elements/1.1/"
   xmlns:cc="http://creativecommons.org/ns#"
   xmlns:rdf="http://www.w3.org/1999/02/22-rdf-syntax-ns#"
   xmlns:svg="http://www.w3.org/2000/svg"
   xmlns="http://www.w3.org/2000/svg"
   xmlns:sodipodi="http://sodipodi.sourceforge.net/DTD/sodipodi-0.dtd"
   xmlns:inkscape="http://www.inkscape.org/namespaces/inkscape"
   inkscape:version="1.0.1 (3bc2e813f5, 2020-09-07)"
   sodipodi:docname="spray-mode-clone-symbolic.svg"
   viewBox="0 0 16 16"
   height="16"
   width="16"
   id="svg1"
   version="1.1">
  <metadata
     id="metadata15983">
    <rdf:RDF>
      <cc:Work
         rdf:about="">
        <dc:format>image/svg+xml</dc:format>
        <dc:type
           rdf:resource="http://purl.org/dc/dcmitype/StillImage" />
        <dc:title />
      </cc:Work>
    </rdf:RDF>
  </metadata>
  <defs
     id="defs15981">
    <inkscape:path-effect
       effect="join_type"
       id="path-effect870"
       is_visible="true"
       lpeversion="1"
       linecap_type="butt"
       line_width="0.667"
       linejoin_type="extrp_arc"
       miter_limit="100"
       attempt_force_join="true" />
    <inkscape:path-effect
       effect="fillet_chamfer"
       id="path-effect868"
       is_visible="true"
       lpeversion="1"
       satellites_param="F,0,0,1,0,0.66666997,0,1 @ F,0,0,1,0,0.66666997,0,1 @ F,0,0,1,0,0,0,1 @ F,0,0,1,0,0,0,1"
       unit="px"
       method="auto"
       mode="F"
       radius="0"
       chamfer_steps="1"
       flexible="false"
       use_knot_distance="true"
       apply_no_radius="true"
       apply_with_radius="true"
       only_selected="false"
       hide_knots="false" />
    <inkscape:path-effect
       effect="fillet_chamfer"
       id="path-effect866"
       is_visible="true"
       lpeversion="1"
       satellites_param="F,0,0,1,0,0.9730528,0,1 @ F,0,0,1,0,0.9730528,0,1 @ F,0,0,1,0,0,0,1 @ F,0,0,1,0,0,0,1"
       unit="px"
       method="auto"
       mode="F"
       radius="0"
       chamfer_steps="1"
       flexible="false"
       use_knot_distance="true"
       apply_no_radius="true"
       apply_with_radius="true"
       only_selected="false"
       hide_knots="false" />
  </defs>
  <style
     id="s0">
.success { fill:#009909; }
.warning { fill:#FF1990; }
.error { fill:#00AAFF; }
</style>
  <style
     id="s2">
@import '../../highlights.css';
</style>
  <sodipodi:namedview
     inkscape:document-rotation="0"
     inkscape:current-layer="svg1"
     inkscape:window-maximized="1"
     inkscape:window-y="-9"
     inkscape:window-x="-9"
     inkscape:window-height="1013"
     inkscape:window-width="1920"
     inkscape:cy="9.803828"
     inkscape:cx="19.83175"
     inkscape:zoom="20.771262"
     showgrid="true"
     id="namedview"
     guidetolerance="10"
     gridtolerance="10"
     objecttolerance="10"
     inkscape:snap-bbox="true"
     inkscape:bbox-nodes="true">
    <inkscape:grid
       id="grid"
       type="xygrid"
       spacingx="0.66666667"
       spacingy="0.66667" />
  </sodipodi:namedview>
  <path
     id="rect834"
     style="opacity:0.8;stroke-width:1.32961"
     d="m 11.333333,5.999396 v 3.3339844 l -4.6666663,6.64e-4 V 12.00006 l 7.3326823,-6.64e-4 v -6 z"
     sodipodi:nodetypes="ccccccc" />
  <path
     id="rect836"
     style="opacity:0.9;stroke-width:1.32961"
     d="M 3.3339844 2.6660156 L 3.3339844 8.6660156 L 10.666016 8.6660156 L 10.666016 2.6660156 L 3.3339844 2.6660156 z M 6.640625 3.3261719 L 7.3613281 3.3261719 C 8.0845995 3.3261719 8.6679688 3.9095411 8.6679688 4.6328125 L 8.6679688 5.3339844 A 0.66666997 0.66666997 0 0 1 9.3339844 6 L 9.3339844 8 L 4.6660156 8 L 4.6660156 6 A 0.66666997 0.66666997 0 0 1 5.3339844 5.3339844 L 5.3339844 4.6328125 C 5.3339844 3.9095411 5.9173536 3.3261719 6.640625 3.3261719 z M 6.640625 3.9921875 C 6.289092 3.9921875 6 4.2812795 6 4.6328125 L 6 5.3085938 L 8 5.3085938 L 8 4.6328125 C 8 4.2812795 7.7128612 3.9921875 7.3613281 3.9921875 L 6.640625 3.9921875 z " />
  <path
     id="rect838"
     style="opacity:0.7;stroke-width:1.32961"
     d="M 1.3339844,7.3339848 V 13.333984 H 8.6660156 L 8.6666667,12.66673 H 6 V 9.3333804 H 2.6666667 v -2 z"
     sodipodi:nodetypes="ccccccccc" />
</svg>
