<?xml version="1.0" encoding="UTF-8" standalone="no"?>
<svg
   inkscape:version="1.1 (c68e22c387, 2021-05-23)"
   sodipodi:docname="view-fullscreen-symbolic.svg"
   viewBox="0 0 16 16"
   height="16"
   width="16"
   id="svg1"
   version="1.1"
   xmlns:inkscape="http://www.inkscape.org/namespaces/inkscape"
   xmlns:sodipodi="http://sodipodi.sourceforge.net/DTD/sodipodi-0.dtd"
   xmlns="http://www.w3.org/2000/svg"
   xmlns:svg="http://www.w3.org/2000/svg"
   xmlns:rdf="http://www.w3.org/1999/02/22-rdf-syntax-ns#"
   xmlns:cc="http://creativecommons.org/ns#"
   xmlns:dc="http://purl.org/dc/elements/1.1/">
  <metadata
     id="metadata5729">
    <rdf:RDF>
      <cc:Work
         rdf:about="">
        <dc:format>image/svg+xml</dc:format>
        <dc:type
           rdf:resource="http://purl.org/dc/dcmitype/StillImage" />
      </cc:Work>
    </rdf:RDF>
  </metadata>
  <defs
     id="defs5727">
    <inkscape:path-effect
       effect="copy_rotate"
       starting_point="10,8.0000047"
       origin="8,8.0000047"
       id="path-effect919"
       is_visible="true"
       lpeversion="1"
       method="normal"
       num_copies="4"
       starting_angle="0"
       rotation_angle="60"
       gap="-0.01"
       copies_to_360="true"
       mirror_copies="false"
       split_items="false" />
  </defs>
  <style
     id="s0">
.success { fill:#009909; }
.warning { fill:#FF1990; }
.error { fill:#00AAFF; }
</style>
  <style
     id="s2">
@import '../../highlights.css';
</style>
  <sodipodi:namedview
     inkscape:document-rotation="0"
     inkscape:current-layer="view-fullscreen"
     inkscape:window-maximized="1"
     inkscape:window-y="-9"
     inkscape:window-x="-9"
     inkscape:window-height="1013"
     inkscape:window-width="1920"
     inkscape:cy="7.9878419"
     inkscape:cx="8"
     inkscape:zoom="41.125"
     showgrid="true"
     id="namedview"
     guidetolerance="10"
     gridtolerance="10"
     objecttolerance="10"
     pagecolor="#ffffff"
     bordercolor="#999999"
     borderopacity="1"
     inkscape:pageshadow="0"
     inkscape:pageopacity="0"
     inkscape:pagecheckerboard="0">
    <inkscape:grid
       id="grid"
       type="xygrid" />
  </sodipodi:namedview>
  <g
     id="view-fullscreen"
     inkscape:label="00035"
     transform="matrix(1,0,0,0.999998,-75,-767.36026)">
    <g
       transform="translate(-1,-1)"
       id="g17494">
      <path
         id="rect17490"
         style="stroke-width:0.999999"
         d="M 1,1 V 5 H 2 V 2 H 5 V 1 Z m -4.7e-6,14.000005 h 4 v -1 h -3 v -3 h -1 z M 15,15.000009 v -4 h -1 v 3 h -3 v 1 z m 5e-6,-14.0000043 h -4 v 1 h 3 v 3 h 1 z"
         transform="matrix(1,0,0,1.000002,76,768.36179)"
         sodipodi:nodetypes="ccccccc"
         inkscape:path-effect="#path-effect919"
         inkscape:original-d="M 1,1 V 5 H 2 V 2 H 5 V 1 Z" />
    </g>
    <path
       style="opacity:0.5"
       d="m 78,771.36218 h 10 v 8 H 78 Z"
       id="rect17516"
       inkscape:connector-curvature="0" />
  </g>
</svg>
