<?xml version="1.0" encoding="UTF-8" standalone="no"?>
<svg
   inkscape:version="1.1 (c68e22c387, 2021-05-23)"
   sodipodi:docname="window-new-symbolic.svg"
   viewBox="0 0 16 16"
   height="16"
   width="16"
   id="svg1"
   version="1.1"
   xmlns:inkscape="http://www.inkscape.org/namespaces/inkscape"
   xmlns:sodipodi="http://sodipodi.sourceforge.net/DTD/sodipodi-0.dtd"
   xmlns="http://www.w3.org/2000/svg"
   xmlns:svg="http://www.w3.org/2000/svg"
   xmlns:rdf="http://www.w3.org/1999/02/22-rdf-syntax-ns#"
   xmlns:cc="http://creativecommons.org/ns#"
   xmlns:dc="http://purl.org/dc/elements/1.1/">
  <metadata
     id="metadata9868">
    <rdf:RDF>
      <cc:Work
         rdf:about="">
        <dc:format>image/svg+xml</dc:format>
        <dc:type
           rdf:resource="http://purl.org/dc/dcmitype/StillImage" />
      </cc:Work>
    </rdf:RDF>
  </metadata>
  <defs
     id="defs9866" />
  <style
     id="s0">
.success { fill:#009909; }
.warning { fill:#FF1990; }
.error { fill:#00AAFF; }
</style>
  <style
     id="s2">
@import '../../highlights.css';
</style>
  <sodipodi:namedview
     inkscape:document-rotation="0"
     inkscape:current-layer="window-new"
     inkscape:window-maximized="1"
     inkscape:window-y="-9"
     inkscape:window-x="-9"
     inkscape:window-height="1013"
     inkscape:window-width="1920"
     inkscape:cy="7.9878419"
     inkscape:cx="8.0121581"
     inkscape:zoom="41.125"
     showgrid="true"
     id="namedview"
     guidetolerance="10"
     gridtolerance="10"
     objecttolerance="10"
     pagecolor="#ffffff"
     bordercolor="#999999"
     borderopacity="1"
     inkscape:pageshadow="0"
     inkscape:pageopacity="0"
     inkscape:pagecheckerboard="0">
    <inkscape:grid
       id="grid"
       type="xygrid" />
  </sodipodi:namedview>
  <g
     id="window-new"
     inkscape:label="00038"
     transform="matrix(0.999816,0,0,1,-74.983283,-827.36218)">
    <path
       style="opacity:0.5;stroke-width:0.999265"
       d="m 78.017829,835.3622 h 5.982361 v 1 h -5.982361 z"
       id="path17707"
       inkscape:connector-curvature="0" />
    <path
       d="m 76.020769,833.36218 h 0.99853 v 9 h -0.99853 z"
       id="rect17709"
       inkscape:connector-curvature="0"
       style="stroke-width:0.947986" />
    <path
       d="m 76.020769,833.36218 h 8.979417 v 1 h -8.979417 z"
       id="rect17711"
       inkscape:connector-curvature="0"
       style="stroke-width:0.999265" />
    <path
       d="m 85.000188,833.36218 h 0.998529 v 9 h -0.998529 z"
       id="rect17713"
       inkscape:connector-curvature="0"
       style="stroke-width:0.947986" />
    <path
       d="m 76.020769,841.36218 h 8.979417 v 1 h -8.979417 z"
       id="rect17715"
       inkscape:connector-curvature="0"
       style="stroke-width:0.999265" />
    <path
       style="opacity:1;stroke-width:0.661497"
       d="M 83.998739,831.36218 H 91 v 1 h -7.001261 z"
       id="rect17727"
       inkscape:connector-curvature="0" />
    <path
       style="opacity:1;stroke-width:0.661672"
       d="M 86.999291,828.36218 H 88 v 7 h -1.000709 z"
       id="rect17729"
       inkscape:connector-curvature="0" />
  </g>
</svg>
