<?xml version="1.0" encoding="UTF-8" standalone="no"?>
<svg
   width="32"
   height="32"
   inkscape:hotspot_x="7"
   inkscape:hotspot_y="7"
   style="fill:gray;stroke:black"
   version="1.1"
   id="svg20"
   sodipodi:docname="star.svg"
   inkscape:version="1.1 (c68e22c387, 2021-05-23)"
   xmlns:inkscape="http://www.inkscape.org/namespaces/inkscape"
   xmlns:sodipodi="http://sodipodi.sourceforge.net/DTD/sodipodi-0.dtd"
   xmlns="http://www.w3.org/2000/svg"
   xmlns:svg="http://www.w3.org/2000/svg">
  <sodipodi:namedview
     id="namedview22"
     pagecolor="#ffffff"
     bordercolor="#999999"
     borderopacity="1"
     inkscape:pageshadow="0"
     inkscape:pageopacity="0"
     inkscape:pagecheckerboard="0"
     showgrid="true"
     inkscape:zoom="17.469618"
     inkscape:cx="11.820522"
     inkscape:cy="17.086808"
     inkscape:window-width="1920"
     inkscape:window-height="1017"
     inkscape:window-x="-8"
     inkscape:window-y="32"
     inkscape:window-maximized="1"
     inkscape:current-layer="svg20">
    <inkscape:grid
       type="xygrid"
       id="grid881" />
  </sodipodi:namedview>
  <defs
     id="defs9">
    <!-- Shadow -->
    <filter
       id="shadow"
       x="-0.33497298"
       y="-0.36182789"
       width="1.717565"
       height="1.7300119">
      <feOffset
         result="offOut"
         in="SourceAlpha"
         dx="1"
         dy="1"
         id="feOffset2" />
      <feGaussianBlur
         result="blurOut"
         stdDeviation="1"
         id="feGaussianBlur4" />
      <feBlend
         in="SourceGraphic"
         in2="blurOut"
         mode="normal"
         id="feBlend6" />
    </filter>
  </defs>
  <!-- Cross (centered on hotspot) -->
  <!-- Triangle -->
  <path
     d="m 1.5,7.5 h 12 m -6,-6 v 12"
     style="fill:none;stroke:#ffffff;stroke-width:3px;stroke-linecap:square"
     id="path16"
     sodipodi:nodetypes="cccc" />
  <path
     d="m 1.5,7.5 h 12 m -6,-6 v 12"
     style="fill:none;stroke:#000000;stroke-width:1px;stroke-linecap:square"
     id="path18"
     sodipodi:nodetypes="cccc" />
</svg>
