<?xml version="1.0" encoding="UTF-8" standalone="no"?>
<svg
   version="1.1"
   id="svg1"
   width="16"
   height="16"
   viewBox="0 0 16 16"
   sodipodi:docname="dialog-objects-symbolic.svg"
   inkscape:version="1.1 (c68e22c387, 2021-05-23)"
   xmlns:inkscape="http://www.inkscape.org/namespaces/inkscape"
   xmlns:sodipodi="http://sodipodi.sourceforge.net/DTD/sodipodi-0.dtd"
   xmlns="http://www.w3.org/2000/svg"
   xmlns:svg="http://www.w3.org/2000/svg"
   xmlns:rdf="http://www.w3.org/1999/02/22-rdf-syntax-ns#"
   xmlns:cc="http://creativecommons.org/ns#"
   xmlns:dc="http://purl.org/dc/elements/1.1/">
  <metadata
     id="metadata4351">
    <rdf:RDF>
      <cc:Work
         rdf:about="">
        <dc:format>image/svg+xml</dc:format>
        <dc:type
           rdf:resource="http://purl.org/dc/dcmitype/StillImage" />
      </cc:Work>
    </rdf:RDF>
  </metadata>
  <defs
     id="defs4349" />
  <style
     id="s0">
.success { fill:#009909; }
.warning { fill:#FF1990; }
.error { fill:#00AAFF; }
</style>
  <style
     id="s2">
@import '../../highlights.css';
</style>
  <sodipodi:namedview
     objecttolerance="10"
     gridtolerance="10"
     guidetolerance="10"
     id="namedview"
     showgrid="true"
     inkscape:zoom="29.079766"
     inkscape:cx="11.57162"
     inkscape:cy="7.99525"
     inkscape:window-width="1920"
     inkscape:window-height="1017"
     inkscape:window-x="-8"
     inkscape:window-y="32"
     inkscape:window-maximized="1"
     inkscape:current-layer="dialog-layers"
     inkscape:document-rotation="0"
     pagecolor="#ffffff"
     bordercolor="#000000"
     borderopacity="1"
     inkscape:pageshadow="0"
     inkscape:pageopacity="0"
     inkscape:pagecheckerboard="0">
    <inkscape:grid
       type="xygrid"
       id="grid" />
  </sodipodi:namedview>
  <g
     transform="translate(-105,-767.3622)"
     id="dialog-layers"
     inkscape:label="#layers">
    <rect
       style="opacity:1;fill:#05a2eb;fill-opacity:1;stroke-width:18.3874;stroke-linecap:round;paint-order:stroke fill markers;stop-color:#000000"
       id="rect4459"
       width="10"
       height="3"
       x="108"
       y="769.36218" />
    <rect
       style="opacity:1;fill:#05a2eb;fill-opacity:1;stroke-width:18.3874;stroke-linecap:round;paint-order:stroke fill markers;stop-color:#000000"
       id="rect4506"
       width="10"
       height="3"
       x="108"
       y="774.36218" />
    <rect
       style="opacity:1;fill:#05a2eb;fill-opacity:1;stroke-width:18.3874;stroke-linecap:round;paint-order:stroke fill markers;stop-color:#000000"
       id="rect4508"
       width="10"
       height="3"
       x="108"
       y="779.36218" />
  </g>
</svg>
