<?xml version="1.0" encoding="UTF-8" standalone="no"?>
<svg
   inkscape:version="1.1 (c68e22c387, 2021-05-23)"
   sodipodi:docname="distribute-randomize-symbolic.svg"
   viewBox="0 0 16 16"
   height="16"
   width="16"
   id="svg1"
   version="1.1"
   xmlns:inkscape="http://www.inkscape.org/namespaces/inkscape"
   xmlns:sodipodi="http://sodipodi.sourceforge.net/DTD/sodipodi-0.dtd"
   xmlns="http://www.w3.org/2000/svg"
   xmlns:svg="http://www.w3.org/2000/svg"
   xmlns:rdf="http://www.w3.org/1999/02/22-rdf-syntax-ns#"
   xmlns:cc="http://creativecommons.org/ns#"
   xmlns:dc="http://purl.org/dc/elements/1.1/">
  <style
     id="s0">
   .success { fill: #009909; }
   .warning { fill: #FF1990; }
   .error   { fill: #00AAFF; }
  </style>
  <style
     id="s2"> 
     @import '../../highlights.css'; 
  </style>
  <metadata
     id="metadata15">
    <rdf:RDF>
      <cc:Work
         rdf:about="">
        <dc:format>image/svg+xml</dc:format>
        <dc:type
           rdf:resource="http://purl.org/dc/dcmitype/StillImage" />
      </cc:Work>
    </rdf:RDF>
  </metadata>
  <defs
     id="defs13" />
  <sodipodi:namedview
     inkscape:snap-center="true"
     inkscape:document-rotation="0"
     inkscape:current-layer="distribute-randomize"
     inkscape:window-maximized="1"
     inkscape:window-y="32"
     inkscape:window-x="-8"
     inkscape:window-height="1017"
     inkscape:window-width="1920"
     inkscape:cy="9.8221551"
     inkscape:cx="9.2918251"
     inkscape:zoom="45.254834"
     showgrid="true"
     id="namedview"
     guidetolerance="10"
     gridtolerance="10"
     objecttolerance="10"
     pagecolor="#ffffff"
     bordercolor="#000000"
     borderopacity="1"
     inkscape:pageshadow="0"
     inkscape:pageopacity="0"
     inkscape:pagecheckerboard="0"
     inkscape:snap-page="true"
     inkscape:snap-smooth-nodes="true">
    <inkscape:grid
       id="grid"
       type="xygrid"
       spacingx="0.66666667"
       spacingy="0.66667" />
  </sodipodi:namedview>
  <g
     id="distribute-randomize"
     inkscape:label="00289"
     transform="matrix(0.666667,0,0,0.666667,-696,-548.90812)">
    <g
       id="g1127"
       transform="matrix(1.1436484,0,0,1.1436484,-192.84727,-119.98728)"
       style="stroke-width:0.874395">
      <circle
         style="fill:#05a3eb;fill-opacity:0.7;fill-rule:evenodd;stroke-width:1.31159"
         id="path4590"
         cx="1090.9897"
         cy="834.35205"
         r="5.9999971" />
      <circle
         style="fill:#05a3eb;fill-opacity:0.7;fill-rule:evenodd;stroke-width:1.31159"
         id="path5739"
         cx="1094.9897"
         cy="838.36182"
         r="3.990289" />
    </g>
  </g>
</svg>
