<?xml version="1.0" encoding="UTF-8" standalone="no"?>
<svg
   inkscape:version="1.1 (c68e22c387, 2021-05-23)"
   sodipodi:docname="distribute-vertical-gaps-symbolic.svg"
   viewBox="0 0 16 16"
   height="16"
   width="16"
   id="svg1"
   version="1.1"
   xmlns:inkscape="http://www.inkscape.org/namespaces/inkscape"
   xmlns:sodipodi="http://sodipodi.sourceforge.net/DTD/sodipodi-0.dtd"
   xmlns="http://www.w3.org/2000/svg"
   xmlns:svg="http://www.w3.org/2000/svg"
   xmlns:rdf="http://www.w3.org/1999/02/22-rdf-syntax-ns#"
   xmlns:cc="http://creativecommons.org/ns#"
   xmlns:dc="http://purl.org/dc/elements/1.1/">
  <style
     id="s0">
   .success { fill: #009909; }
   .warning { fill: #FF1990; }
   .error   { fill: #00AAFF; }
  </style>
  <style
     id="s2"> 
     @import '../../highlights.css'; 
  </style>
  <metadata
     id="metadata1253">
    <rdf:RDF>
      <cc:Work
         rdf:about="">
        <dc:format>image/svg+xml</dc:format>
        <dc:type
           rdf:resource="http://purl.org/dc/dcmitype/StillImage" />
      </cc:Work>
    </rdf:RDF>
  </metadata>
  <defs
     id="defs1251" />
  <sodipodi:namedview
     inkscape:snap-global="true"
     inkscape:document-rotation="0"
     inkscape:current-layer="g865"
     inkscape:window-maximized="1"
     inkscape:window-y="32"
     inkscape:window-x="-8"
     inkscape:window-height="1017"
     inkscape:window-width="1920"
     inkscape:cy="7.7058619"
     inkscape:cx="2.6349076"
     inkscape:zoom="30.171836"
     showgrid="true"
     id="namedview"
     guidetolerance="10"
     gridtolerance="10"
     objecttolerance="10"
     pagecolor="#ffffff"
     bordercolor="#000000"
     borderopacity="1"
     inkscape:pageshadow="0"
     inkscape:pageopacity="0"
     inkscape:pagecheckerboard="0">
    <inkscape:grid
       id="grid"
       type="xygrid"
       spacingx="0.66667"
       spacingy="0.66667" />
  </sodipodi:namedview>
  <g
     id="g865"
     transform="rotate(-90,8.000038,8.000021)">
    <rect
       style="fill:#000000;fill-opacity:0.8;stroke-width:18.3874;stroke-linecap:round;paint-order:stroke fill markers;stop-color:#000000"
       id="rect6928"
       width="6.6667328"
       height="2.6666801"
       x="6.6666503"
       y="-14.000049"
       transform="rotate(90)" />
    <rect
       style="fill:#000000;fill-opacity:0.8;stroke-width:18.3874;stroke-linecap:round;paint-order:stroke fill markers;stop-color:#000000"
       id="rect7074"
       width="12.000061"
       height="0.66667002"
       x="1.3333219"
       y="-10.666699"
       transform="rotate(90)" />
    <rect
       style="fill:#000000;fill-opacity:0.8;stroke-width:18.3874;stroke-linecap:round;paint-order:stroke fill markers;stop-color:#000000"
       id="rect7153"
       width="8.6667109"
       height="3.3333499"
       x="5.3333421"
       y="-5.3333387"
       transform="rotate(90)" />
    <rect
       style="fill:#000000;fill-opacity:0.8;stroke-width:18.3874;stroke-linecap:round;paint-order:stroke fill markers;stop-color:#000000"
       id="rect7346"
       width="13.3334"
       height="0.66667002"
       x="1.333323"
       y="-6.6666789"
       transform="rotate(90)" />
  </g>
</svg>
