<?xml version="1.0" encoding="UTF-8" standalone="no"?>
<svg
   inkscape:version="1.1 (c68e22c387, 2021-05-23)"
   sodipodi:docname="distribute-remove-overlaps-symbolic.svg"
   viewBox="0 0 16 16"
   height="16"
   width="16"
   id="svg1"
   version="1.1"
   xmlns:inkscape="http://www.inkscape.org/namespaces/inkscape"
   xmlns:sodipodi="http://sodipodi.sourceforge.net/DTD/sodipodi-0.dtd"
   xmlns="http://www.w3.org/2000/svg"
   xmlns:svg="http://www.w3.org/2000/svg"
   xmlns:rdf="http://www.w3.org/1999/02/22-rdf-syntax-ns#"
   xmlns:cc="http://creativecommons.org/ns#"
   xmlns:dc="http://purl.org/dc/elements/1.1/">
  <style
     id="s0">
   .success { fill: #009909; }
   .warning { fill: #FF1990; }
   .error   { fill: #00AAFF; }
  </style>
  <style
     id="s2"> 
     @import '../../highlights.css'; 
  </style>
  <metadata
     id="metadata13">
    <rdf:RDF>
      <cc:Work
         rdf:about="">
        <dc:format>image/svg+xml</dc:format>
        <dc:type
           rdf:resource="http://purl.org/dc/dcmitype/StillImage" />
      </cc:Work>
    </rdf:RDF>
  </metadata>
  <defs
     id="defs11" />
  <sodipodi:namedview
     inkscape:document-rotation="0"
     inkscape:current-layer="distribute-remove-overlaps"
     inkscape:window-maximized="1"
     inkscape:window-y="32"
     inkscape:window-x="-8"
     inkscape:window-height="1017"
     inkscape:window-width="1920"
     inkscape:cy="7.6645679"
     inkscape:cx="8.8942272"
     inkscape:zoom="54.080022"
     showgrid="true"
     id="namedview"
     guidetolerance="10"
     gridtolerance="10"
     objecttolerance="10"
     pagecolor="#ffffff"
     bordercolor="#000000"
     borderopacity="1"
     inkscape:pageshadow="0"
     inkscape:pageopacity="0"
     inkscape:pagecheckerboard="0">
    <inkscape:grid
       originy="0"
       originx="0"
       empopacity="0.54509804"
       empcolor="#32ef79"
       opacity="0.15686275"
       color="#25e27c"
       dotted="false"
       id="grid"
       type="xygrid"
       spacingx="0.66666667"
       spacingy="0.66667" />
  </sodipodi:namedview>
  <g
     id="distribute-remove-overlaps"
     inkscape:label="00292"
     transform="matrix(0.727273,0,0,0.666667,-840.72727,-548.90812)">
    <path
       style="opacity:0.9;stroke-width:0.922095"
       d="m 1160.5829,828.36179 h 2.75 v 3.00001 h -2.75 z"
       id="rect19457"
       inkscape:connector-curvature="0" />
    <path
       style="opacity:0.9;stroke-width:0.939586"
       d="m 1160.5829,833.36182 h 2.75 v 10.00004 h -2.75 z"
       id="rect19459"
       inkscape:connector-curvature="0" />
    <path
       style="opacity:0.9;stroke-width:0.939594"
       d="m 1165.1662,828.36179 h 2.75 v 15.00007 h -2.75 z"
       id="rect19461"
       inkscape:connector-curvature="0" />
    <path
       style="opacity:0.9;stroke-width:0.939595"
       d="m 1169.7496,828.36179 h 2.75 v 15.00007 h -2.75 z"
       id="rect19463"
       inkscape:connector-curvature="0" />
  </g>
</svg>
