<?xml version="1.0" encoding="UTF-8" standalone="no"?>
<svg
   inkscape:version="1.1 (c68e22c387, 2021-05-23)"
   sodipodi:docname="none-symbolic.svg"
   version="1.1"
   height="16"
   width="16"
   id="svg1"
   xmlns:inkscape="http://www.inkscape.org/namespaces/inkscape"
   xmlns:sodipodi="http://sodipodi.sourceforge.net/DTD/sodipodi-0.dtd"
   xmlns="http://www.w3.org/2000/svg"
   xmlns:svg="http://www.w3.org/2000/svg"
   xmlns:rdf="http://www.w3.org/1999/02/22-rdf-syntax-ns#"
   xmlns:cc="http://creativecommons.org/ns#"
   xmlns:dc="http://purl.org/dc/elements/1.1/">
  <style
     id="s0">
.success { fill:#009909; }
.warning { fill:#FF1990; }
.error { fill:#00AAFF; }
</style>
  <style
     id="s2">
@import '../../highlights.css';
</style>
  <metadata
     id="metadata9">
    <rdf:RDF>
      <cc:Work
         rdf:about="">
        <dc:format>image/svg+xml</dc:format>
        <dc:type
           rdf:resource="http://purl.org/dc/dcmitype/StillImage" />
      </cc:Work>
    </rdf:RDF>
  </metadata>
  <sodipodi:namedview
     inkscape:document-rotation="0"
     inkscape:current-layer="none"
     inkscape:window-maximized="1"
     inkscape:window-y="-9"
     inkscape:window-x="-9"
     inkscape:cy="6.9533902"
     inkscape:cx="5.8370636"
     inkscape:zoom="52.851917"
     showgrid="true"
     id="namedview7"
     inkscape:window-height="1013"
     inkscape:window-width="1920"
     inkscape:pageshadow="2"
     inkscape:pageopacity="0"
     guidetolerance="10"
     gridtolerance="10"
     objecttolerance="10"
     borderopacity="1"
     bordercolor="#666666"
     pagecolor="#ffffff"
     inkscape:pagecheckerboard="0">
    <inkscape:grid
       type="xygrid"
       id="grid947"
       spacingx="0.66667"
       spacingy="0.66667" />
  </sodipodi:namedview>
  <defs
     id="defs3" />
  <g
     id="none">
    <rect
       y="0"
       x="0"
       width="16"
       style="color:#000000;fill:none;stroke-width:0"
       id="rect9056-0"
       height="16" />
    <path
       id="rect7924"
       d="M 2.66668,2.00001 2.00001,2.66668 7.33337,8.00004 2.00001,13.3334 2.66668,14.00007 8.00004,8.66671 13.3334,14.00007 14.00007,13.3334 8.66671,8.00004 14.00007,2.66668 13.3334,2.00001 8.00004,7.33337 Z"
       style="opacity:0.809524;fill:#000000;fill-opacity:1;fill-rule:evenodd;stroke:none"
       sodipodi:nodetypes="ccccccccccccc" />
  </g>
</svg>
