<?xml version="1.0" encoding="UTF-8" standalone="no"?>
<svg
   inkscape:version="1.1 (c68e22c387, 2021-05-23)"
   sodipodi:docname="object-rotate-left-symbolic.svg"
   viewBox="0 0 16 16"
   height="16"
   width="16"
   id="svg1"
   version="1.1"
   xmlns:inkscape="http://www.inkscape.org/namespaces/inkscape"
   xmlns:sodipodi="http://sodipodi.sourceforge.net/DTD/sodipodi-0.dtd"
   xmlns="http://www.w3.org/2000/svg"
   xmlns:svg="http://www.w3.org/2000/svg"
   xmlns:rdf="http://www.w3.org/1999/02/22-rdf-syntax-ns#"
   xmlns:cc="http://creativecommons.org/ns#"
   xmlns:dc="http://purl.org/dc/elements/1.1/">
  <metadata
     id="metadata7131">
    <rdf:RDF>
      <cc:Work
         rdf:about="">
        <dc:format>image/svg+xml</dc:format>
        <dc:type
           rdf:resource="http://purl.org/dc/dcmitype/StillImage" />
      </cc:Work>
    </rdf:RDF>
  </metadata>
  <defs
     id="defs7129">
    <inkscape:path-effect
       effect="join_type"
       id="path-effect6011"
       is_visible="true"
       lpeversion="1"
       linecap_type="round"
       line_width="0.87"
       linejoin_type="extrp_arc"
       miter_limit="100"
       attempt_force_join="true" />
    <inkscape:path-effect
       attempt_force_join="true"
       miter_limit="100"
       linejoin_type="extrp_arc"
       line_width="1.8897638"
       linecap_type="butt"
       lpeversion="1"
       is_visible="true"
       id="path-effect7712"
       effect="join_type" />
    <inkscape:path-effect
       effect="join_type"
       id="path-effect862"
       is_visible="true"
       lpeversion="1"
       linecap_type="round"
       line_width="0.87"
       linejoin_type="extrp_arc"
       miter_limit="100"
       attempt_force_join="true" />
  </defs>
  <style
     id="s0">
.success { fill:#009909; }
.warning { fill:#FF1990; }
.error { fill:#00AAFF; }
</style>
  <style
     id="s2">
@import '../../highlights.css';
</style>
  <sodipodi:namedview
     inkscape:document-rotation="0"
     inkscape:current-layer="g858"
     inkscape:window-maximized="1"
     inkscape:window-y="32"
     inkscape:window-x="-8"
     inkscape:window-height="1017"
     inkscape:window-width="1920"
     inkscape:cy="3.984375"
     inkscape:cx="10.984375"
     inkscape:zoom="32"
     showgrid="true"
     id="namedview"
     guidetolerance="10"
     gridtolerance="10"
     objecttolerance="10"
     pagecolor="#ffffff"
     bordercolor="#000000"
     borderopacity="1"
     inkscape:pageshadow="0"
     inkscape:pageopacity="0"
     inkscape:pagecheckerboard="0">
    <inkscape:grid
       id="grid"
       type="xygrid"
       spacingx="0.66667"
       spacingy="0.66667" />
  </sodipodi:namedview>
  <g
     id="object-rotate-left"
     inkscape:label="00065"
     transform="translate(-135,-727.36218)">
    <g
       transform="matrix(-1,0,0,1,286,20)"
       id="g18423">
      <g
         id="g858"
         transform="matrix(-1,0,0,1,285.99991,0)">
        <rect
           id="rect846-6"
           width="4.00002"
           height="6.6667438"
           x="-149.66669"
           y="710.69556"
           ry="0"
           class="base"
           style="opacity:0.5;fill:#000000;fill-opacity:0.6;stroke-width:1"
           transform="scale(-1,1)" />
        <rect
           id="rect848-7"
           width="10.666729"
           height="4.00002"
           x="-149.66666"
           y="717.36224"
           ry="0"
           class="base"
           style="fill:#000000;fill-opacity:0.8;stroke-width:1"
           transform="scale(-1,1)" />
        <path
           style="fill:#000000;fill-opacity:0.8;stroke:none;stroke-width:1px;stroke-linecap:butt;stroke-linejoin:miter;stroke-opacity:1"
           d="m 140.99992,712.02886 2e-5,3.33336 h 3.33335 z"
           id="path972" />
      </g>
    </g>
  </g>
</svg>
