<?xml version="1.0" encoding="UTF-8" standalone="no"?>
<svg
   xmlns:dc="http://purl.org/dc/elements/1.1/"
   xmlns:cc="http://creativecommons.org/ns#"
   xmlns:rdf="http://www.w3.org/1999/02/22-rdf-syntax-ns#"
   xmlns:svg="http://www.w3.org/2000/svg"
   xmlns="http://www.w3.org/2000/svg"
   xmlns:sodipodi="http://sodipodi.sourceforge.net/DTD/sodipodi-0.dtd"
   xmlns:inkscape="http://www.inkscape.org/namespaces/inkscape"
   inkscape:version="1.0.1 (3bc2e813f5, 2020-09-07)"
   sodipodi:docname="object-to-path-symbolic.svg"
   viewBox="0 0 16 16"
   height="16"
   width="16"
   id="svg1"
   version="1.1">
  <metadata
     id="metadata4745">
    <rdf:RDF>
      <cc:Work
         rdf:about="">
        <dc:format>image/svg+xml</dc:format>
        <dc:type
           rdf:resource="http://purl.org/dc/dcmitype/StillImage" />
        <dc:title></dc:title>
      </cc:Work>
    </rdf:RDF>
  </metadata>
  <defs
     id="defs4743" />
  <style
     id="s0">
.success { fill:#009909; }
.warning { fill:#FF1990; }
.error { fill:#00AAFF; }
</style>
  <style
     id="s2">
@import '../../highlights.css';
</style>
  <sodipodi:namedview
     inkscape:document-rotation="0"
     inkscape:current-layer="svg1"
     inkscape:window-maximized="1"
     inkscape:window-y="-9"
     inkscape:window-x="-9"
     inkscape:window-height="1013"
     inkscape:window-width="1920"
     inkscape:cy="8.8677377"
     inkscape:cx="19.00825"
     inkscape:zoom="41.125"
     showgrid="true"
     id="namedview"
     guidetolerance="10"
     gridtolerance="10"
     objecttolerance="10">
    <inkscape:grid
       id="grid"
       type="xygrid"
       spacingx="0.66666667"
       spacingy="0.66667" />
  </sodipodi:namedview>
  <rect
     style="opacity:0.5;fill:#000000;stroke-width:0.67;stop-color:#000000"
     id="rect848"
     width="2"
     height="2.00001"
     x="2"
     y="2.00001" />
  <rect
     style="opacity:0.5;fill:#000000;stroke-width:0.67;stop-color:#000000"
     id="rect852"
     width="7.1054274e-15"
     height="1.33334"
     x="4"
     y="12.00006"
     ry="3.5527137e-15" />
  <rect
     style="opacity:0.5;fill:#000000;stroke-width:0.67;stop-color:#000000"
     id="rect854"
     width="2.0000005"
     height="2.0000105"
     x="1.9999995"
     y="12.00006" />
  <rect
     id="rect856"
     width="1.8852614"
     height="1.8855559"
     x="6.8357658"
     y="10.135258"
     transform="matrix(0.70710321,-0.70711035,0.70710692,0.70710664,0,0)"
     class="error" />
  <rect
     id="rect858"
     width="1.8856179"
     height="1.8856274"
     x="-1.1785637"
     y="18.149117"
     transform="matrix(0.70710321,-0.70711035,0.70710692,0.70710664,0,0)"
     class="error" />
  <rect
     style="opacity:0.5;fill:#000000;stroke-width:0.67;stop-color:#000000"
     id="rect860"
     width="1.3333334"
     height="0.66667002"
     x="4.6666665"
     y="2.6666801"
     ry="3.5527101e-15" />
  <rect
     style="opacity:0.5;fill:#000000;stroke-width:0.67;stop-color:#000000"
     id="rect862"
     width="0.66666669"
     height="0.66667002"
     x="7.3333335"
     y="2.6666801"
     ry="3.5527101e-15" />
  <rect
     style="opacity:0.9;fill:#000000;stroke-width:0.67;stop-color:#000000"
     id="rect864"
     width="1.3333334"
     height="0.66667002"
     x="10"
     y="2.6666801"
     ry="3.5527101e-15" />
  <rect
     style="opacity:0.5;fill:#000000;stroke-width:0.67;stop-color:#000000"
     id="rect866"
     width="1.3333334"
     height="0.66667002"
     x="4.6666665"
     y="12.66673"
     ry="3.5527101e-15" />
  <rect
     style="opacity:0.5;fill:#000000;stroke-width:0.67;stop-color:#000000"
     id="rect868"
     width="0.66666657"
     height="0.66667008"
     x="7.3333335"
     y="12.66673"
     ry="3.5527101e-15" />
  <rect
     style="opacity:0.9;fill:#000000;stroke-width:0.67;stop-color:#000000"
     id="rect870"
     width="1.3333334"
     height="0.66667002"
     x="10"
     y="12.66673"
     ry="3.5527101e-15" />
  <rect
     style="opacity:0.9;fill:#000000;stroke-width:0.67;stop-color:#000000"
     id="rect872"
     width="1.3333334"
     height="0.66667002"
     x="4.6667066"
     y="-13.33336"
     ry="3.5527101e-15"
     transform="rotate(90)" />
  <rect
     style="opacity:0.9;fill:#000000;stroke-width:0.67;stop-color:#000000"
     id="rect874"
     width="1.3333334"
     height="0.66667002"
     x="7.3333735"
     y="-13.33336"
     ry="3.5527101e-15"
     transform="rotate(90)" />
  <rect
     style="opacity:0.9;fill:#000000;stroke-width:0.67;stop-color:#000000"
     id="rect876"
     width="1.3333334"
     height="0.66667002"
     x="10.00004"
     y="-13.33336"
     ry="3.5527101e-15"
     transform="rotate(90)" />
  <rect
     style="opacity:0.5;fill:#000000;stroke-width:0.67;stop-color:#000000"
     id="rect878"
     width="1.3333334"
     height="0.66667002"
     x="4.6667066"
     y="-3.3333101"
     ry="3.5527101e-15"
     transform="rotate(90)" />
  <rect
     style="opacity:0.5;fill:#000000;stroke-width:0.67;stop-color:#000000"
     id="rect880"
     width="1.3333334"
     height="0.66667002"
     x="7.3333735"
     y="-3.3333101"
     ry="3.5527101e-15"
     transform="rotate(90)" />
  <rect
     style="opacity:0.5;fill:#000000;stroke-width:0.67;stop-color:#000000"
     id="rect882"
     width="1.3333334"
     height="0.66667002"
     x="10.00004"
     y="-3.3333101"
     ry="3.5527101e-15"
     transform="rotate(90)" />
  <rect
     id="rect892"
     width="4.000001"
     height="8.0000401"
     x="8"
     y="4.00002"
     class="base" />
  <rect
     id="rect894"
     width="4.000001"
     height="8.0000401"
     x="4"
     y="4.00002"
     class="base"
     style="opacity:0.5" />
  <rect
     style="opacity:0.9;fill:#000000;stroke-width:0.67;stop-color:#000000"
     id="rect902"
     width="0.66666669"
     height="0.66667002"
     x="8"
     y="2.6666801"
     ry="3.5527101e-15" />
  <rect
     style="opacity:0.9;fill:#000000;stroke-width:0.67;stop-color:#000000"
     id="rect904"
     width="0.66666657"
     height="0.66667008"
     x="8"
     y="12.66673"
     ry="3.5527101e-15" />
</svg>
