<?xml version="1.0" encoding="UTF-8" standalone="no"?>
<svg
   inkscape:version="1.1 (c68e22c387, 2021-05-23)"
   sodipodi:docname="selection-bottom-symbolic.svg"
   viewBox="0 0 16 16"
   height="16"
   width="16"
   id="svg1"
   version="1.1"
   xmlns:inkscape="http://www.inkscape.org/namespaces/inkscape"
   xmlns:sodipodi="http://sodipodi.sourceforge.net/DTD/sodipodi-0.dtd"
   xmlns="http://www.w3.org/2000/svg"
   xmlns:svg="http://www.w3.org/2000/svg"
   xmlns:rdf="http://www.w3.org/1999/02/22-rdf-syntax-ns#"
   xmlns:cc="http://creativecommons.org/ns#"
   xmlns:dc="http://purl.org/dc/elements/1.1/">
  <metadata
     id="metadata7269">
    <rdf:RDF>
      <cc:Work
         rdf:about="">
        <dc:format>image/svg+xml</dc:format>
        <dc:type
           rdf:resource="http://purl.org/dc/dcmitype/StillImage" />
      </cc:Work>
    </rdf:RDF>
  </metadata>
  <defs
     id="defs7267" />
  <style
     id="s0">
.success { fill:#009909; }
.warning { fill:#FF1990; }
.error { fill:#00AAFF; }
</style>
  <style
     id="s2">
@import '../../highlights.css';
</style>
  <sodipodi:namedview
     inkscape:document-rotation="0"
     inkscape:current-layer="svg1"
     inkscape:window-maximized="1"
     inkscape:window-y="32"
     inkscape:window-x="-8"
     inkscape:window-height="1017"
     inkscape:window-width="1920"
     inkscape:cy="6.984375"
     inkscape:cx="4.71875"
     inkscape:zoom="32"
     showgrid="true"
     id="namedview"
     guidetolerance="10"
     gridtolerance="10"
     objecttolerance="10"
     pagecolor="#ffffff"
     bordercolor="#000000"
     borderopacity="1"
     inkscape:pageshadow="0"
     inkscape:pageopacity="0"
     inkscape:pagecheckerboard="0">
    <inkscape:grid
       id="grid"
       type="xygrid"
       spacingx="0.66666667"
       spacingy="0.66667" />
  </sodipodi:namedview>
  <path
     d="M 4.6666667,7.33337 H 7.8785085 V 9.33338 H 4.6666667 Z"
     id="rect12191-4"
     class="base"
     style="opacity:0.5;fill:#616161;fill-opacity:1;stroke-width:1" />
  <path
     d="M 4.6666667,11.33339 H 13.333333 V 13.3334 H 4.6666667 Z"
     id="rect12193-8"
     class="base"
     style="fill:#000000;stroke-width:0.999994;fill-opacity:0.80000001" />
  <path
     id="path936-6"
     d="M 11.462195,9.578727 13.333333,7.33337 H 9.5910578 Z"
     sodipodi:nodetypes="ccccc"
     class="error"
     style="fill:#000000;stroke-width:1.11113;fill-opacity:0.80000001" />
  <path
     d="M 4.6666667,3.33335 H 9.9999434 V 5.33336 H 4.6666667 Z"
     id="path1365"
     class="base"
     style="fill:#626262;fill-opacity:0.501961;stroke-width:0.999996" />
</svg>
