<?xml version="1.0" encoding="UTF-8" standalone="no"?>
<svg
   inkscape:version="1.1 (c68e22c387, 2021-05-23)"
   sodipodi:docname="selection-lower-symbolic.svg"
   viewBox="0 0 16 16"
   height="16"
   width="16"
   id="svg1"
   version="1.1"
   xmlns:inkscape="http://www.inkscape.org/namespaces/inkscape"
   xmlns:sodipodi="http://sodipodi.sourceforge.net/DTD/sodipodi-0.dtd"
   xmlns="http://www.w3.org/2000/svg"
   xmlns:svg="http://www.w3.org/2000/svg"
   xmlns:rdf="http://www.w3.org/1999/02/22-rdf-syntax-ns#"
   xmlns:cc="http://creativecommons.org/ns#"
   xmlns:dc="http://purl.org/dc/elements/1.1/">
  <metadata
     id="metadata3248">
    <rdf:RDF>
      <cc:Work
         rdf:about="">
        <dc:format>image/svg+xml</dc:format>
        <dc:type
           rdf:resource="http://purl.org/dc/dcmitype/StillImage" />
      </cc:Work>
    </rdf:RDF>
  </metadata>
  <defs
     id="defs3246" />
  <style
     id="s0">
.success { fill:#009909; }
.warning { fill:#FF1990; }
.error { fill:#00AAFF; }
</style>
  <style
     id="s2">
@import '../../highlights.css';
</style>
  <sodipodi:namedview
     inkscape:document-rotation="0"
     inkscape:current-layer="svg1"
     inkscape:window-maximized="1"
     inkscape:window-y="32"
     inkscape:window-x="-8"
     inkscape:window-height="1017"
     inkscape:window-width="1920"
     inkscape:cy="5.1271719"
     inkscape:cx="3.493238"
     inkscape:zoom="26.622864"
     showgrid="true"
     id="namedview"
     guidetolerance="10"
     gridtolerance="10"
     objecttolerance="10"
     pagecolor="#ffffff"
     bordercolor="#000000"
     borderopacity="1"
     inkscape:pageshadow="0"
     inkscape:pageopacity="0"
     inkscape:pagecheckerboard="0">
    <inkscape:grid
       id="grid"
       type="xygrid"
       spacingx="0.66667"
       spacingy="0.66667" />
  </sodipodi:namedview>
  <path
     d="m 4.66669,5.3333601 h 3.23812 v -2.00001 H 4.66669 Z"
     id="rect12191-4-7"
     class="base"
     style="opacity:0.5;fill:#616161;stroke-width:0.999995" />
  <path
     d="M 4.66669,9.3333798 H 13.3334 V 7.3333697 H 4.66669 Z"
     id="rect12193-8-0"
     class="base"
     style="fill:#000000;stroke-width:0.999997;fill-opacity:0.80000001" />
  <path
     id="path936-6-9"
     d="M 11.462262,5.578707 13.3334,3.33335 H 9.591123 Z"
     sodipodi:nodetypes="ccccc"
     class="error"
     style="fill:#000000;stroke-width:1.11113;fill-opacity:0.80000001" />
  <path
     d="m 4.66669,13.3334 h 5.33336 V 11.33339 H 4.66669 Z"
     id="path1365-1"
     class="base"
     style="fill:#626262;fill-opacity:0.501961;stroke-width:0.999996" />
</svg>
