<?xml version="1.0" encoding="UTF-8" standalone="no"?>
<svg
   version="1.1"
   id="svg1"
   width="16"
   height="16"
   viewBox="0 0 16 16"
   sodipodi:docname="snap-alignment-symbolic.svg"
   inkscape:version="1.1 (c68e22c387, 2021-05-23)"
   xmlns:inkscape="http://www.inkscape.org/namespaces/inkscape"
   xmlns:sodipodi="http://sodipodi.sourceforge.net/DTD/sodipodi-0.dtd"
   xmlns="http://www.w3.org/2000/svg"
   xmlns:svg="http://www.w3.org/2000/svg"
   xmlns:rdf="http://www.w3.org/1999/02/22-rdf-syntax-ns#"
   xmlns:cc="http://creativecommons.org/ns#"
   xmlns:dc="http://purl.org/dc/elements/1.1/">
  <metadata
     id="metadata6232">
    <rdf:RDF>
      <cc:Work
         rdf:about="">
        <dc:format>image/svg+xml</dc:format>
        <dc:type
           rdf:resource="http://purl.org/dc/dcmitype/StillImage" />
      </cc:Work>
    </rdf:RDF>
  </metadata>
  <defs
     id="defs6230" />
  <style
     id="s0">.success { fill:#009909; }
.warning { fill:#FF1990; }
.error { fill:#00AAFF; }
</style>
  <style
     id="s2">
@import '../../highlights.css';
</style>
  <sodipodi:namedview
     objecttolerance="10"
     gridtolerance="10"
     guidetolerance="10"
     id="namedview"
     showgrid="true"
     inkscape:zoom="32.4065"
     inkscape:cx="5.7704473"
     inkscape:cy="5.0761421"
     inkscape:window-width="1920"
     inkscape:window-height="1013"
     inkscape:window-x="-9"
     inkscape:window-y="-9"
     inkscape:window-maximized="1"
     inkscape:current-layer="path-division"
     inkscape:document-rotation="0"
     pagecolor="#ffffff"
     bordercolor="#666666"
     borderopacity="1.0"
     inkscape:pageshadow="2"
     inkscape:pageopacity="0.0"
     inkscape:pagecheckerboard="0"
     inkscape:snap-bbox="true"
     inkscape:bbox-paths="true"
     inkscape:bbox-nodes="true"
     inkscape:snap-bbox-edge-midpoints="true"
     inkscape:snap-bbox-midpoints="true">
    <inkscape:grid
       type="xygrid"
       id="grid" />
  </sodipodi:namedview>
  <g
     transform="translate(-165,-667.36218)"
     inkscape:label="00080"
     id="path-division">
    <path
       inkscape:connector-curvature="0"
       id="rect11641"
       d="m 165,667.36218 h 16 v 16 h -16 z"
       style="opacity:0;fill:none" />
    <rect
       style="opacity:1;fill:#000000;stroke-width:0.670894;stroke-linecap:round;stroke-linejoin:round"
       id="rect1358"
       width="12"
       height="4.0000052"
       x="167"
       y="668.36218" />
    <rect
       style="opacity:1;fill:#000000;stroke-width:0.670894;stroke-linecap:round;stroke-linejoin:round"
       id="rect1232"
       width="8"
       height="4.0000052"
       x="167"
       y="678.36218" />
    <circle
       id="circle1546"
       cx="167.5"
       cy="671.86218"
       r="1.4999975"
       class="error" />
    <circle
       id="circle1464"
       cx="167.5"
       cy="678.86218"
       r="1.4999975"
       class="error" />
    <rect
       id="rect1570"
       width="1"
       height="6"
       x="167"
       y="672.36218"
       class="error" />
  </g>
</svg>
