<?xml version="1.0" encoding="UTF-8" standalone="no"?>
<svg
   inkscape:version="1.1 (c68e22c387, 2021-05-23)"
   sodipodi:docname="snap-bounding-box-symbolic.svg"
   viewBox="0 0 16 16"
   height="16"
   width="16"
   id="svg1"
   version="1.1"
   xmlns:inkscape="http://www.inkscape.org/namespaces/inkscape"
   xmlns:sodipodi="http://sodipodi.sourceforge.net/DTD/sodipodi-0.dtd"
   xmlns="http://www.w3.org/2000/svg"
   xmlns:svg="http://www.w3.org/2000/svg"
   xmlns:rdf="http://www.w3.org/1999/02/22-rdf-syntax-ns#"
   xmlns:cc="http://creativecommons.org/ns#"
   xmlns:dc="http://purl.org/dc/elements/1.1/">
  <style
     id="s0">
   .success { fill: #009909; }
   .warning { fill: #FF1990; }
   .error   { fill: #00AAFF; }
  </style>
  <style
     id="s2"> 
     @import '../../highlights.css'; 
  </style>
  <metadata
     id="metadata3070">
    <rdf:RDF>
      <cc:Work
         rdf:about="">
        <dc:format>image/svg+xml</dc:format>
        <dc:type
           rdf:resource="http://purl.org/dc/dcmitype/StillImage" />
      </cc:Work>
    </rdf:RDF>
  </metadata>
  <defs
     id="defs3068" />
  <sodipodi:namedview
     inkscape:document-rotation="0"
     inkscape:current-layer="snap-bounding-box"
     inkscape:window-maximized="1"
     inkscape:window-y="32"
     inkscape:window-x="-8"
     inkscape:window-height="1017"
     inkscape:window-width="1920"
     inkscape:cy="-2.5190679"
     inkscape:cx="13.214058"
     inkscape:zoom="11.313709"
     showgrid="true"
     id="namedview"
     guidetolerance="10"
     gridtolerance="10"
     objecttolerance="10"
     pagecolor="#ffffff"
     bordercolor="#999999"
     borderopacity="1"
     inkscape:pageshadow="0"
     inkscape:pageopacity="0"
     inkscape:pagecheckerboard="0">
    <inkscape:grid
       id="grid"
       type="xygrid" />
  </sodipodi:namedview>
  <g
     inkscape:label="00321"
     id="snap-bounding-box"
     transform="matrix(0.998054,0,0,0.99611,-587.82292,-503.39613)">
    <path
       style="opacity:0;fill:none"
       d="m 588.96881,505.36221 h 16 v 16 h -16 z"
       id="rect22420"
       inkscape:connector-curvature="0" />
    <path
       style="opacity:0.5;stroke-width:1.00195"
       d="m 588.96905,511.38542 h 1.00196 v 4.01562 h -1.00196 z"
       id="rect22455"
       inkscape:connector-curvature="0" />
    <path
       inkscape:connector-curvature="0"
       id="path3635"
       d="m 589,517.42447 h 0.97101 v 4 H 589 Z"
       style="opacity:0.5;stroke-width:0.999997" />
    <path
       style="opacity:0.5;stroke-width:1"
       d="m 599,505.36221 v 1.00368 h -4 v -1.00368 z"
       id="rect22459"
       inkscape:connector-curvature="0" />
    <path
       style="opacity:0.5;stroke-width:1"
       d="m 605,505.36221 v 1.00368 h -4 v -1.00368 z"
       id="rect22462"
       inkscape:connector-curvature="0" />
    <path
       class="error"
       style="opacity:1;stroke-width:1.00293"
       d="m 588.96905,505.36199 h 4.0078 v 4.01562 h -4.0078 z"
       id="rect22464"
       inkscape:connector-curvature="0" />
    <path
       inkscape:connector-curvature="0"
       id="path22466"
       d="m 593.9788,510.38151 v 7 l 7,-7 z"
       style="opacity:1" />
  </g>
</svg>
