<?xml version="1.0" encoding="UTF-8" standalone="no"?>
<svg
   inkscape:version="1.1 (c68e22c387, 2021-05-23)"
   sodipodi:docname="zoom-double-size-symbolic.svg"
   viewBox="0 0 16 16"
   height="16"
   width="16"
   id="svg1"
   version="1.1"
   xmlns:inkscape="http://www.inkscape.org/namespaces/inkscape"
   xmlns:sodipodi="http://sodipodi.sourceforge.net/DTD/sodipodi-0.dtd"
   xmlns="http://www.w3.org/2000/svg"
   xmlns:svg="http://www.w3.org/2000/svg"
   xmlns:rdf="http://www.w3.org/1999/02/22-rdf-syntax-ns#"
   xmlns:cc="http://creativecommons.org/ns#"
   xmlns:dc="http://purl.org/dc/elements/1.1/">
  <metadata
     id="metadata5113">
    <rdf:RDF>
      <cc:Work
         rdf:about="">
        <dc:format>image/svg+xml</dc:format>
        <dc:type
           rdf:resource="http://purl.org/dc/dcmitype/StillImage" />
        <dc:title />
      </cc:Work>
    </rdf:RDF>
  </metadata>
  <defs
     id="defs5111">
    <inkscape:path-effect
       effect="mirror_symmetry"
       start_point="9.33326,8.3332502"
       end_point="6.6665802,8.3332502"
       center_point="7.9999201,8.3332502"
       id="path-effect857"
       is_visible="true"
       lpeversion="1"
       mode="free"
       discard_orig_path="false"
       fuse_paths="false"
       oposite_fuse="false"
       split_items="false" />
    <inkscape:path-effect
       effect="mirror_symmetry"
       start_point="8.3332502,1.6666201"
       end_point="8.3332502,4.9999801"
       center_point="8.3332502,3.3333001"
       id="path-effect855"
       is_visible="true"
       lpeversion="1"
       mode="free"
       discard_orig_path="false"
       fuse_paths="false"
       oposite_fuse="false"
       split_items="false" />
    <inkscape:path-effect
       effect="mirror_symmetry"
       start_point="8.6667199,1.6664194"
       end_point="8.6667199,4.9997794"
       center_point="8.6667199,3.3330994"
       id="path-effect840"
       is_visible="true"
       lpeversion="1"
       mode="free"
       discard_orig_path="false"
       fuse_paths="false"
       oposite_fuse="false"
       split_items="false" />
    <inkscape:path-effect
       effect="mirror_symmetry"
       start_point="9.3333898,8.6664594"
       end_point="6.66671,8.6664594"
       center_point="8.0000499,8.6664594"
       id="path-effect842"
       is_visible="true"
       lpeversion="1"
       mode="free"
       discard_orig_path="false"
       fuse_paths="false"
       oposite_fuse="false"
       split_items="false" />
  </defs>
  <style
     id="s0">
.success { fill:#009909; }
.warning { fill:#FF1990; }
.error { fill:#00AAFF; }
</style>
  <style
     id="s2">
@import '../../highlights.css';
</style>
  <sodipodi:namedview
     inkscape:document-rotation="0"
     inkscape:current-layer="svg1"
     inkscape:window-maximized="1"
     inkscape:window-y="32"
     inkscape:window-x="-8"
     inkscape:window-height="1017"
     inkscape:window-width="1920"
     inkscape:cy="4.847676"
     inkscape:cx="23.925627"
     inkscape:zoom="22.381859"
     showgrid="true"
     id="namedview"
     guidetolerance="10"
     gridtolerance="10"
     objecttolerance="10"
     pagecolor="#505050"
     bordercolor="#eeeeee"
     borderopacity="1"
     inkscape:pageshadow="0"
     inkscape:pageopacity="0"
     inkscape:pagecheckerboard="0">
    <inkscape:grid
       id="grid"
       type="xygrid"
       spacingx="0.66667"
       spacingy="0.66667" />
  </sodipodi:namedview>
  <g
     id="g1975"
     transform="matrix(1.5,0,0,1.5,-4.00002,-3.666685)"
     style="stroke-width:0.666667">
    <path
       style="fill:#4d4d4d;fill-opacity:1;stroke:none;stroke-width:0.666667px;stroke-linecap:butt;stroke-linejoin:miter;stroke-opacity:1"
       d="M 10.00005,5.33336 V 4.66669 h 2.00001 v 6.6667 H 11.33339 V 5.33336 Z"
       id="path891"
       sodipodi:nodetypes="ccccccc" />
    <path
       style="fill:#4d4d4d;fill-opacity:1;stroke:none;stroke-width:0.666667px;stroke-linecap:butt;stroke-linejoin:miter;stroke-opacity:1"
       d="M 8.66671,6.00003 H 9.33338 V 6.6667 c 0,0 -0.66667,0 -0.66667,0 z"
       id="path893" />
    <path
       style="fill:#4d4d4d;fill-opacity:1;stroke:none;stroke-width:0.666667px;stroke-linecap:butt;stroke-linejoin:miter;stroke-opacity:1"
       d="M 4.00002,5.33336 V 4.66669 H 7.33337 V 8.66671 H 4.66669 v 2.00001 h 2.66668 v 0.66667 H 4.00002 V 8.00004 H 6.6667 V 5.33336 Z"
       id="path895"
       sodipodi:nodetypes="ccccccccccccc" />
    <path
       style="fill:#4d4d4d;fill-opacity:1;stroke:none;stroke-width:0.666667px;stroke-linecap:butt;stroke-linejoin:miter;stroke-opacity:1"
       d="m 8.66671,9.33338 v 0.66667 H 9.33338 V 9.33338 Z"
       id="path897" />
  </g>
</svg>
